%!PS-Adobe-2.0 EPSF-2.0
%%BoundingBox:  0 0 567 388
%%Title: pendulumdrive_resonance.eps: pendulumdrive_resonance
%%Creator: ROOT Version 5.32/04
%%CreationDate: Fri Dec  6 09:47:31 2013
%%EndComments
%%BeginProlog
80 dict begin
/s {stroke} def /l {lineto} def /m {moveto} def /t {translate} def
/r {rotate} def /rl {roll}  def /R {repeat} def
/d {rlineto} def /rm {rmoveto} def /gr {grestore} def /f {eofill} def
/c {setrgbcolor} def /black {0 setgray} def /sd {setdash} def
/cl {closepath} def /sf {scalefont setfont} def /lw {setlinewidth} def
/box {m dup 0 exch d exch 0 d 0 exch neg d cl} def
/NC{systemdict begin initclip end}def/C{NC box clip newpath}def
/bl {box s} def /bf {box f} def /Y { 0 exch d} def /X { 0 d} def 
/K {{pop pop 0 moveto} exch kshow} bind def
/ita {/ang 15 def gsave [1 0 ang dup sin exch cos div 1 0 0] concat} def 
/mp {newpath /y exch def /x exch def} def
/side {[w .77 mul w .23 mul] .385 w mul sd w 0 l currentpoint t -144 r} def
/mr {mp x y w2 0 360 arc} def /m24 {mr s} def /m20 {mr f} def
/mb {mp x y w2 add m w2 neg 0 d 0 w neg d w 0 d 0 w d cl} def
/mt {mp x y w2 add m w2 neg w neg d w 0 d cl} def
/m21 {mb f} def /m25 {mb s} def /m22 {mt f} def /m26{mt s} def
/m23 {mp x y w2 sub m w2 w d w neg 0 d cl f} def
/m27 {mp x y w2 add m w3 neg w2 neg d w3 w2 neg d w3 w2 d cl s} def
/m28 {mp x w2 sub y w2 sub w3 add m w3 0 d  0 w3 neg d w3 0 d 0 w3 d w3 0 d  0 w3 d w3 neg 0 d 0 w3 d w3 neg 0 d 0 w3 neg d w3 neg 0 d cl s } def
/m29 {mp gsave x w2 sub y w2 add w3 sub m currentpoint t 4 {side} repeat cl fill gr} def
/m30 {mp gsave x w2 sub y w2 add w3 sub m currentpoint t 4 {side} repeat cl s gr} def
/m31 {mp x y w2 sub m 0 w d x w2 sub y m w 0 d x w2 sub y w2 add m w w neg d x w2 sub y w2 sub m w w d s} def
/m32 {mp x y w2 sub m w2 w d w neg 0 d cl s} def
/m33 {mp x y w2 add m w3 neg w2 neg d w3 w2 neg d w3 w2 d cl f} def
/m34 {mp x w2 sub y w2 sub w3 add m w3 0 d  0 w3 neg d w3 0 d 0 w3 d w3 0 d  0 w3 d w3 neg 0 d 0 w3 d w3 neg 0 d 0 w3 neg d w3 neg 0 d cl f } def
/m2 {mp x y w2 sub m 0 w d x w2 sub y m w 0 d s} def
/m5 {mp x w2 sub y w2 sub m w w d x w2 sub y w2 add m w w neg d s} def
/reEncode {exch findfont dup length dict begin {1 index /FID eq  {pop pop} {def} ifelse } forall /Encoding exch def currentdict end dup /FontName get exch definefont pop } def [/Times-Bold /Times-Italic /Times-BoldItalic /Helvetica /Helvetica-Oblique
 /Helvetica-Bold /Helvetica-BoldOblique /Courier /Courier-Oblique /Courier-Bold /Courier-BoldOblique /Times-Roman /AvantGarde-Book /AvantGarde-BookOblique /AvantGarde-Demi /AvantGarde-DemiOblique /Bookman-Demi /Bookman-DemiItalic /Bookman-Light
 /Bookman-LightItalic /Helvetica-Narrow /Helvetica-Narrow-Bold /Helvetica-Narrow-BoldOblique /Helvetica-Narrow-Oblique /NewCenturySchlbk-Roman /NewCenturySchlbk-Bold /NewCenturySchlbk-BoldItalic /NewCenturySchlbk-Italic /Palatino-Bold
 /Palatino-BoldItalic /Palatino-Italic /Palatino-Roman ] {ISOLatin1Encoding reEncode } forall%%EndProlog
%%BeginSetup
%%EndSetup
newpath  gsave  .25 .25 scale  gsave  0 0 t black[  ] 0 sd 6 lw 1 1 1 c 2268 1552 0 0 bf black 3 lw 1 1 1 c 1894 1225 283 202 bf black 1894 1225 283 202 bl 1 1 1 c 1894 1225 283 202 bf black 1894 1225 283 202 bl 6 lw 283 202 m 1894 X s 0.6 0.6 0.6 c[
 12 12] 0 sd 3 lw 292 1427 m -1225 Y s 483 1427 m -1225 Y s 674 1427 m -1225 Y s 864 1427 m -1225 Y s 1055 1427 m -1225 Y s 1246 1427 m -1225 Y s 1437 1427 m -1225 Y s 1628 1427 m -1225 Y s 1818 1427 m -1225 Y s 2009 1427 m -1225 Y s 292 1427 m -1225
 Y s 2009 1427 m -1225 Y s black[  ] 0 sd 6 lw 283 1427 m 1894 X s 283 202 m 1225 Y s 0.6 0.6 0.6 c[ 12 12] 0 sd 3 lw 2177 202 m -1894 X s 2177 302 m -1894 X s 2177 402 m -1894 X s 2177 503 m -1894 X s 2177 603 m -1894 X s 2177 704 m -1894 X s 2177
 804 m -1894 X s 2177 904 m -1894 X s 2177 1005 m -1894 X s 2177 1105 m -1894 X s 2177 1205 m -1894 X s 2177 1306 m -1894 X s 2177 1406 m -1894 X s 2177 1406 m -1894 X s black[  ] 0 sd 6 lw 2177 202 m 1225 Y s 283 202 m 1894 X s
 gsave  2268 1552 0 0 C 2159.21 27.1258 t 0 r /Helvetica findfont 78.6648 sf 0 0 m (]) show NC gr 
 gsave  2268 1552 0 0 C 2115.81 65.1019 t 0 r /Helvetica findfont 51.539 sf 0 0 m (\2551) show NC gr 
 gsave  2268 1552 0 0 C 2034.43 27.1258 t 0 r /Helvetica findfont 78.6648 sf 0 0 m ( [s) show NC gr 
 gsave  2268 1552 0 0 C 1980.18 27.1258 t 0 r /Symbol findfont 78.6648 sf 0 0 m (w) show NC gr  292 241 m -39 Y s 330 221 m -19 Y s 368 221 m -19 Y s 406 221 m -19 Y s 445 221 m -19 Y s 483 241 m -39 Y s 521 221 m -19 Y s 559 221 m -19 Y s 597 221 m
 -19 Y s 635 221 m -19 Y s 674 241 m -39 Y s 712 221 m -19 Y s 750 221 m -19 Y s 788 221 m -19 Y s 826 221 m -19 Y s 864 241 m -39 Y s 903 221 m -19 Y s 941 221 m -19 Y s 979 221 m -19 Y s 1017 221 m -19 Y s 1055 241 m -39 Y s 1093 221 m -19 Y s 1132
 221 m -19 Y s 1170 221 m -19 Y s 1208 221 m -19 Y s 1246 241 m -39 Y s 1284 221 m -19 Y s 1322 221 m -19 Y s 1360 221 m -19 Y s 1399 221 m -19 Y s 1437 241 m -39 Y s 1475 221 m -19 Y s 1513 221 m -19 Y s 1551 221 m -19 Y s 1589 221 m -19 Y s 1628
 241 m -39 Y s 1666 221 m -19 Y s 1704 221 m -19 Y s 1742 221 m -19 Y s 1780 221 m -19 Y s 1818 241 m -39 Y s 1857 221 m -19 Y s 1895 221 m -19 Y s 1933 221 m -19 Y s 1971 221 m -19 Y s 2009 241 m -39 Y s 292 241 m -39 Y s 2009 241 m -39 Y s 2047 221
 m -19 Y s 2086 221 m -19 Y s 2124 221 m -19 Y s 2162 221 m -19 Y s
 gsave  2268 1552 0 0 C 241.42 135.629 t 0 r /Helvetica findfont 70.5271 sf 0 0 m (2.5) show NC gr 
 gsave  2268 1552 0 0 C 461.139 135.629 t 0 r /Helvetica findfont 70.5271 sf 0 0 m (3) show NC gr 
 gsave  2268 1552 0 0 C 623.893 135.629 t 0 r /Helvetica findfont 70.5271 sf 0 0 m (3.5) show NC gr 
 gsave  2268 1552 0 0 C 843.612 135.629 t 0 r /Helvetica findfont 70.5271 sf 0 0 m (4) show NC gr 
 gsave  2268 1552 0 0 C 1003.65 135.629 t 0 r /Helvetica findfont 70.5271 sf 0 0 m (4.5) show NC gr 
 gsave  2268 1552 0 0 C 1226.09 135.629 t 0 r /Helvetica findfont 70.5271 sf 0 0 m (5) show NC gr 
 gsave  2268 1552 0 0 C 1386.13 135.629 t 0 r /Helvetica findfont 70.5271 sf 0 0 m (5.5) show NC gr 
 gsave  2268 1552 0 0 C 1608.56 135.629 t 0 r /Helvetica findfont 70.5271 sf 0 0 m (6) show NC gr 
 gsave  2268 1552 0 0 C 1768.6 135.629 t 0 r /Helvetica findfont 70.5271 sf 0 0 m (6.5) show NC gr 
 gsave  2268 1552 0 0 C 1988.32 135.629 t 0 r /Helvetica findfont 70.5271 sf 0 0 m (7) show NC gr  283 1427 m 1894 X s 292 1389 m 38 Y s 330 1408 m 19 Y s 368 1408 m 19 Y s 406 1408 m 19 Y s 445 1408 m 19 Y s 483 1389 m 38 Y s 521 1408 m 19 Y s 559
 1408 m 19 Y s 597 1408 m 19 Y s 635 1408 m 19 Y s 674 1389 m 38 Y s 712 1408 m 19 Y s 750 1408 m 19 Y s 788 1408 m 19 Y s 826 1408 m 19 Y s 864 1389 m 38 Y s 903 1408 m 19 Y s 941 1408 m 19 Y s 979 1408 m 19 Y s 1017 1408 m 19 Y s 1055 1389 m 38 Y s
 1093 1408 m 19 Y s 1132 1408 m 19 Y s 1170 1408 m 19 Y s 1208 1408 m 19 Y s 1246 1389 m 38 Y s 1284 1408 m 19 Y s 1322 1408 m 19 Y s 1360 1408 m 19 Y s 1399 1408 m 19 Y s 1437 1389 m 38 Y s 1475 1408 m 19 Y s 1513 1408 m 19 Y s 1551 1408 m 19 Y s
 1589 1408 m 19 Y s 1628 1389 m 38 Y s 1666 1408 m 19 Y s 1704 1408 m 19 Y s 1742 1408 m 19 Y s 1780 1408 m 19 Y s 1818 1389 m 38 Y s 1857 1408 m 19 Y s 1895 1408 m 19 Y s 1933 1408 m 19 Y s 1971 1408 m 19 Y s 2009 1389 m 38 Y s 292 1389 m 38 Y s
 2009 1389 m 38 Y s 2047 1408 m 19 Y s 2086 1408 m 19 Y s 2124 1408 m 19 Y s 2162 1408 m 19 Y s 283 202 m 1225 Y s
 gsave  2268 1552 0 0 C 75.9522 686.283 t 90 r /Helvetica findfont 78.6648 sf 0 0 m (Amplitude [ADC cnts]) show NC gr  337 202 m -54 X s 310 227 m -27 X s 310 252 m -27 X s 310 277 m -27 X s 337 302 m -54 X s 310 327 m -27 X s 310 352 m -27 X s 310
 377 m -27 X s 337 402 m -54 X s 310 428 m -27 X s 310 453 m -27 X s 310 478 m -27 X s 337 503 m -54 X s 310 528 m -27 X s 310 553 m -27 X s 310 578 m -27 X s 337 603 m -54 X s 310 628 m -27 X s 310 653 m -27 X s 310 678 m -27 X s 337 704 m -54 X s
 310 729 m -27 X s 310 754 m -27 X s 310 779 m -27 X s 337 804 m -54 X s 310 829 m -27 X s 310 854 m -27 X s 310 879 m -27 X s 337 904 m -54 X s 310 929 m -27 X s 310 955 m -27 X s 310 980 m -27 X s 337 1005 m -54 X s 310 1030 m -27 X s 310 1055 m
 -27 X s 310 1080 m -27 X s 337 1105 m -54 X s 310 1130 m -27 X s 310 1155 m -27 X s 310 1180 m -27 X s 337 1205 m -54 X s 310 1231 m -27 X s 310 1256 m -27 X s 310 1281 m -27 X s 337 1306 m -54 X s 310 1331 m -27 X s 310 1356 m -27 X s 310 1381 m
 -27 X s 337 1406 m -54 X s 337 1406 m -54 X s
 gsave  2268 1552 0 0 C 233.282 176.318 t 0 r /Helvetica findfont 70.5271 sf 0 0 m (0) show NC gr 
 gsave  2268 1552 0 0 C 195.306 276.683 t 0 r /Helvetica findfont 70.5271 sf 0 0 m (20) show NC gr 
 gsave  2268 1552 0 0 C 195.306 377.049 t 0 r /Helvetica findfont 70.5271 sf 0 0 m (40) show NC gr 
 gsave  2268 1552 0 0 C 195.306 477.414 t 0 r /Helvetica findfont 70.5271 sf 0 0 m (60) show NC gr 
 gsave  2268 1552 0 0 C 195.306 577.779 t 0 r /Helvetica findfont 70.5271 sf 0 0 m (80) show NC gr 
 gsave  2268 1552 0 0 C 154.617 678.145 t 0 r /Helvetica findfont 70.5271 sf 0 0 m (100) show NC gr 
 gsave  2268 1552 0 0 C 154.617 778.51 t 0 r /Helvetica findfont 70.5271 sf 0 0 m (120) show NC gr 
 gsave  2268 1552 0 0 C 154.617 878.876 t 0 r /Helvetica findfont 70.5271 sf 0 0 m (140) show NC gr 
 gsave  2268 1552 0 0 C 154.617 979.241 t 0 r /Helvetica findfont 70.5271 sf 0 0 m (160) show NC gr 
 gsave  2268 1552 0 0 C 154.617 1079.61 t 0 r /Helvetica findfont 70.5271 sf 0 0 m (180) show NC gr 
 gsave  2268 1552 0 0 C 154.617 1179.97 t 0 r /Helvetica findfont 70.5271 sf 0 0 m (200) show NC gr 
 gsave  2268 1552 0 0 C 154.617 1280.34 t 0 r /Helvetica findfont 70.5271 sf 0 0 m (220) show NC gr 
 gsave  2268 1552 0 0 C 154.617 1380.7 t 0 r /Helvetica findfont 70.5271 sf 0 0 m (240) show NC gr  2177 202 m 1225 Y s 2123 202 m 54 X s 2150 227 m 27 X s 2150 252 m 27 X s 2150 277 m 27 X s 2123 302 m 54 X s 2150 327 m 27 X s 2150 352 m 27 X s 2150
 377 m 27 X s 2123 402 m 54 X s 2150 428 m 27 X s 2150 453 m 27 X s 2150 478 m 27 X s 2123 503 m 54 X s 2150 528 m 27 X s 2150 553 m 27 X s 2150 578 m 27 X s 2123 603 m 54 X s 2150 628 m 27 X s 2150 653 m 27 X s 2150 678 m 27 X s 2123 704 m 54 X s
 2150 729 m 27 X s 2150 754 m 27 X s 2150 779 m 27 X s 2123 804 m 54 X s 2150 829 m 27 X s 2150 854 m 27 X s 2150 879 m 27 X s 2123 904 m 54 X s 2150 929 m 27 X s 2150 955 m 27 X s 2150 980 m 27 X s 2123 1005 m 54 X s 2150 1030 m 27 X s 2150 1055 m
 27 X s 2150 1080 m 27 X s 2123 1105 m 54 X s 2150 1130 m 27 X s 2150 1155 m 27 X s 2150 1180 m 27 X s 2123 1205 m 54 X s 2150 1231 m 27 X s 2150 1256 m 27 X s 2150 1281 m 27 X s 2123 1306 m 54 X s 2150 1331 m 27 X s 2150 1356 m 27 X s 2150 1381 m 27
 X s 2123 1406 m 54 X s 2123 1406 m 54 X s 3 lw /w 26 def /w2 {w 2 div} def /w3 {w 3 div} def 441 244 591 252 744 268 838 284 879 310 902 327 951 350 1042 475 1077 630 1096 836 1103 924 1112 1141 1125 1318 1119 1303 1133 1314 1289 359 1277 374 1288
 357 1314 334 1306 341 1378 298 1390 293 1436 279 1529 260 1559 255 1651 243 1866 230 2019 224 1155 878 1168 752 1180 677 1186 616 1201 504 1204 561 34 { m20} R 6 lw 0.95 0.95 0.95 c black 284 240 m 4 X 2 1 d 27 X 1 1 d 27 X 2 1 d 25 X 1 1 d 4 X s
 377 244 m 17 X 2 1 d 21 X 2 1 d 19 X 2 1 d 17 X 2 1 d 11 X s 470 248 m 6 X 2 1 d 15 X 2 1 d 15 X 2 1 d 13 X 2 1 d 13 X 2 1 d 11 X 2 1 d 8 X s 563 254 m 4 X 1 1 d 12 X 2 1 d 11 X 2 1 d 9 X 2 1 d 10 X 2 1 d 7 X 2 1 d 10 X 2 1 d 7 X 2 1 d 8 X s 656 262
 m 1 1 d 6 X 2 1 d 8 X 1 1 d 6 X 2 1 d 8 X 2 1 d 5 X 2 1 d 6 X 2 1 d 3 X 2 1 d 6 X 2 1 d 6 X 2 1 d 3 X 2 1 d 4 X 2 1 d 6 X 1 1 d 2 X s 748 275 m 2 X 2 1 d 4 X 2 1 d 4 X 1 1 d 4 X 2 1 d 2 X 2 1 d 4 X 2 1 d 3 X 2 1 d 2 X 2 1 d 4 X 2 1 d 2 X 2 1 d 1 X 2
 1 d 4 X 2 1 d 2 X 2 1 d 2 X 2 1 d 1 X 2 1 d 2 X 2 1 d 2 X 2 1 d 2 X 2 1 d 2 X 2 1 d 1 X 2 1 d 2 X 2 1 d s 841 296 m 2 1 d 2 X 2 1 d 2 X 2 1 d 1 X 2 1 d 2 1 d 2 X 2 1 d 2 1 d 2 X 2 1 d 2 1 d 2 X 1 1 d 2 1 d 2 X 2 1 d 2 1 d 2 1 d 2 X 2 1 d 2 1 d 1 1 d
 2 1 d 2 X 2 1 d 2 1 d 2 1 d 2 1 d 2 1 d 2 1 d 1 1 d 2 1 d 2 1 d 2 1 d 2 1 d 2 1 d 2 1 d 2 1 d 2 1 d 2 1 d 1 1 d 2 1 d 2 1 d 2 1 d 2 2 d 2 1 d s 934 337 m 2 1 d 2 1 d 2 2 d 1 1 d 2 1 d 2 2 d 2 1 d 2 1 d 2 2 d 2 1 d 2 2 d 2 1 d 2 2 d 1 2 d 2 1 d 2 2 d
 2 2 d 2 1 d 2 2 d 2 2 d 2 2 d 2 2 d 1 2 d 2 2 d 2 2 d 2 2 d 2 2 d 2 3 d 2 2 d 2 2 d 2 3 d 1 2 d 2 3 d 2 2 d 2 3 d 2 3 d 2 3 d 2 3 d 2 3 d 2 3 d 2 3 d 1 4 d 2 3 d 2 4 d 2 3 d 2 4 d 2 4 d 2 4 d 2 4 d s 1027 449 m 2 5 d 1 4 d 2 5 d 2 5 d 2 5 d 2 5 d 2
 6 d 2 5 d 2 6 d 2 6 d 2 7 d 1 6 d 2 7 d 2 8 d 2 7 d 2 8 d 2 9 d 2 9 d 2 9 d 2 9 d 1 11 d 2 10 d 2 12 d 2 11 d 2 13 d 2 13 d 2 14 d 2 15 d 2 16 d 1 17 d 2 17 d 2 19 d 2 20 d 2 22 d 2 23 d 2 24 d 2 26 d 2 27 d 2 29 d 1 31 d 2 33 d 2 34 d 2 36 d 2 36 d
 2 38 d 2 38 d 2 37 d 2 36 d 1 33 d s 1119 1271 m 2 29 d 2 22 d 2 16 d 2 8 d 2 X 2 -10 d 2 -17 d 2 -24 d 2 -29 d 1 -34 d 2 -37 d 2 -38 d 2 -39 d 2 -38 d 2 -37 d 2 -37 d 2 -34 d 2 -33 d 1 -31 d 2 -30 d 2 -27 d 2 -26 d 2 -25 d 2 -23 d 2 -21 d 2 -20 d 2
 -19 d 1 -18 d 2 -17 d 2 -16 d 2 -15 d 2 -14 d 2 -13 d 2 -13 d 2 -12 d 2 -11 d 2 -11 d 1 -10 d 2 -10 d 2 -9 d 2 -9 d 2 -8 d 2 -8 d 2 -8 d 2 -7 d 2 -7 d 1 -7 d 2 -6 d 2 -6 d s 1212 482 m 2 -6 d 2 -6 d 2 -5 d 2 -6 d 2 -5 d 2 -5 d 2 -4 d 1 -5 d 2 -4 d 2
 -4 d 2 -5 d 2 -3 d 2 -4 d 2 -4 d 2 -4 d 2 -3 d 1 -3 d 2 -4 d 2 -3 d 2 -3 d 2 -3 d 2 -3 d 2 -3 d 2 -2 d 2 -3 d 1 -3 d 2 -2 d 2 -2 d 2 -3 d 2 -2 d 2 -2 d 2 -3 d 2 -2 d 2 -2 d 2 -2 d 1 -2 d 2 -2 d 2 -2 d 2 -2 d 2 -1 d 2 -2 d 2 -2 d 2 -2 d 2 -1 d 1 -2 d
 2 -2 d 2 -1 d 2 -2 d 2 -1 d s 1305 335 m 2 -2 d 2 -1 d 2 -1 d 2 -2 d 1 -1 d 2 -1 d 2 -2 d 2 -1 d 2 -1 d 2 -1 d 2 -2 d 2 -1 d 2 -1 d 2 -1 d 1 -1 d 2 -1 d 2 -1 d 2 -1 d 2 -1 d 2 -1 d 2 -1 d 2 -1 d 2 -1 d 1 -1 d 2 -1 d 2 -1 d 2 -1 d 2 -1 d 2 -1 d 2 -1
 d 2 X 2 -1 d 2 -1 d 1 -1 d 2 -1 d 2 X 2 -1 d 2 -1 d 2 -1 d 2 X 2 -1 d 2 -1 d 1 -1 d 2 X 2 -1 d 2 -1 d 2 X 2 -1 d 2 -1 d s 1398 287 m 2 X 2 -1 d 1 X 2 -1 d 2 -1 d 2 X 2 -1 d 2 X 2 -1 d 2 -1 d 2 X 2 -1 d 1 X 2 -1 d 2 X 2 -1 d 2 X 2 -1 d 2 X 2 -1 d 2 X
 1 -1 d 2 X 2 -1 d 2 X 2 -1 d 2 X 2 -1 d 4 X 2 -1 d 1 X 2 -1 d 2 X 2 -1 d 4 X 2 -1 d 2 X 2 -1 d 3 X 2 -1 d 4 X 2 -1 d 2 X 2 -1 d 2 X s 1491 264 m 1 X 2 -1 d 4 X 2 -1 d 4 X 2 -1 d 4 X 1 -1 d 4 X 2 -1 d 6 X 2 -1 d 3 X 2 -1 d 4 X 2 -1 d 6 X 2 -1 d 5 X 2
 -1 d 6 X 2 -1 d 5 X 2 -1 d 6 X 2 -1 d 6 X 1 -1 d 2 X s 1583 250 m 6 X 2 -1 d 8 X 1 -1 d 6 X 2 -1 d 8 X 1 -1 d 10 X 2 -1 d 7 X 2 -1 d 10 X 2 -1 d 9 X 2 -1 d 9 X 2 -1 d 4 X s 1676 241 m 8 X 2 -1 d 11 X 2 -1 d 11 X 2 -1 d 12 X 1 -1 d 14 X 2 -1 d 13 X 2
 -1 d 13 X s 1769 235 m 2 X 2 -1 d 15 X 2 -1 d 17 X 2 -1 d 19 X 2 -1 d 18 X 2 -1 d 12 X s 1862 230 m 7 X 2 -1 d 23 X 2 -1 d 23 X 1 -1 d 25 X 2 -1 d 8 X s 1955 226 m 20 X 2 -1 d 29 X 2 -1 d 32 X 2 -1 d 5 X s 2047 223 m 29 X 2 -1 d 37 X 2 -1 d 23 X s
 2140 221 m 17 X 2 -1 d 17 X s 0.6 0.6 0.6 c black 0.6 0.6 0.6 c
 gsave  2268 1552 0 0 C 1472.93 1478.36 t 0 r /Helvetica findfont 78.6648 sf 0 0 m (plasduino) show NC gr  black 0.6 0.6 0.6 c
 gsave  2268 1552 0 0 C 1494.63 1445.8 t 0 r /Helvetica findfont 37.9761 sf 0 0 m (Open source data acquisition framework) show NC gr  black 0.6 0.6 0.6 c
 gsave  2268 1552 0 0 C 111.216 13.5629 t 0 r /Helvetica findfont 46.1139 sf 0 0 m (http://pythonhosted.org/plasduino/) show NC gr 
 gr  gr showpage
end
%%EOF
