%!PS-Adobe-2.0 EPSF-2.0
%%BoundingBox:  0 0 567 388
%%Title: time_jitter.eps: time_jitter
%%Creator: ROOT Version 5.32/04
%%CreationDate: Fri Dec  6 09:47:36 2013
%%EndComments
%%BeginProlog
80 dict begin
/s {stroke} def /l {lineto} def /m {moveto} def /t {translate} def
/r {rotate} def /rl {roll}  def /R {repeat} def
/d {rlineto} def /rm {rmoveto} def /gr {grestore} def /f {eofill} def
/c {setrgbcolor} def /black {0 setgray} def /sd {setdash} def
/cl {closepath} def /sf {scalefont setfont} def /lw {setlinewidth} def
/box {m dup 0 exch d exch 0 d 0 exch neg d cl} def
/NC{systemdict begin initclip end}def/C{NC box clip newpath}def
/bl {box s} def /bf {box f} def /Y { 0 exch d} def /X { 0 d} def 
/K {{pop pop 0 moveto} exch kshow} bind def
/ita {/ang 15 def gsave [1 0 ang dup sin exch cos div 1 0 0] concat} def 
/mp {newpath /y exch def /x exch def} def
/side {[w .77 mul w .23 mul] .385 w mul sd w 0 l currentpoint t -144 r} def
/mr {mp x y w2 0 360 arc} def /m24 {mr s} def /m20 {mr f} def
/mb {mp x y w2 add m w2 neg 0 d 0 w neg d w 0 d 0 w d cl} def
/mt {mp x y w2 add m w2 neg w neg d w 0 d cl} def
/m21 {mb f} def /m25 {mb s} def /m22 {mt f} def /m26{mt s} def
/m23 {mp x y w2 sub m w2 w d w neg 0 d cl f} def
/m27 {mp x y w2 add m w3 neg w2 neg d w3 w2 neg d w3 w2 d cl s} def
/m28 {mp x w2 sub y w2 sub w3 add m w3 0 d  0 w3 neg d w3 0 d 0 w3 d w3 0 d  0 w3 d w3 neg 0 d 0 w3 d w3 neg 0 d 0 w3 neg d w3 neg 0 d cl s } def
/m29 {mp gsave x w2 sub y w2 add w3 sub m currentpoint t 4 {side} repeat cl fill gr} def
/m30 {mp gsave x w2 sub y w2 add w3 sub m currentpoint t 4 {side} repeat cl s gr} def
/m31 {mp x y w2 sub m 0 w d x w2 sub y m w 0 d x w2 sub y w2 add m w w neg d x w2 sub y w2 sub m w w d s} def
/m32 {mp x y w2 sub m w2 w d w neg 0 d cl s} def
/m33 {mp x y w2 add m w3 neg w2 neg d w3 w2 neg d w3 w2 d cl f} def
/m34 {mp x w2 sub y w2 sub w3 add m w3 0 d  0 w3 neg d w3 0 d 0 w3 d w3 0 d  0 w3 d w3 neg 0 d 0 w3 d w3 neg 0 d 0 w3 neg d w3 neg 0 d cl f } def
/m2 {mp x y w2 sub m 0 w d x w2 sub y m w 0 d s} def
/m5 {mp x w2 sub y w2 sub m w w d x w2 sub y w2 add m w w neg d s} def
/reEncode {exch findfont dup length dict begin {1 index /FID eq  {pop pop} {def} ifelse } forall /Encoding exch def currentdict end dup /FontName get exch definefont pop } def [/Times-Bold /Times-Italic /Times-BoldItalic /Helvetica /Helvetica-Oblique
 /Helvetica-Bold /Helvetica-BoldOblique /Courier /Courier-Oblique /Courier-Bold /Courier-BoldOblique /Times-Roman /AvantGarde-Book /AvantGarde-BookOblique /AvantGarde-Demi /AvantGarde-DemiOblique /Bookman-Demi /Bookman-DemiItalic /Bookman-Light
 /Bookman-LightItalic /Helvetica-Narrow /Helvetica-Narrow-Bold /Helvetica-Narrow-BoldOblique /Helvetica-Narrow-Oblique /NewCenturySchlbk-Roman /NewCenturySchlbk-Bold /NewCenturySchlbk-BoldItalic /NewCenturySchlbk-Italic /Palatino-Bold
 /Palatino-BoldItalic /Palatino-Italic /Palatino-Roman ] {ISOLatin1Encoding reEncode } forall%%EndProlog
%%BeginSetup
%%EndSetup
newpath  gsave  .25 .25 scale  gsave  0 0 t black[  ] 0 sd 6 lw 1 1 1 c 2268 1552 0 0 bf black 3 lw 1 1 1 c 1894 1225 283 202 bf black 1894 1225 283 202 bl 1 1 1 c 1894 1225 283 202 bf black 1894 1225 283 202 bl 6 lw 283 202 m 1894 X s 0.6 0.6 0.6 c[
 12 12] 0 sd 3 lw 520 1427 m -1225 Y s 816 1427 m -1225 Y s 1112 1427 m -1225 Y s 1408 1427 m -1225 Y s 1704 1427 m -1225 Y s 1999 1427 m -1225 Y s 520 1427 m -1225 Y s 1999 1427 m -1225 Y s black[  ] 0 sd 6 lw 283 1427 m 1894 X s 283 202 m 1225 Y s
 0.6 0.6 0.6 c[ 12 12] 0 sd 3 lw 2177 202 m -1894 X s 2177 391 m -1894 X s 2177 580 m -1894 X s 2177 770 m -1894 X s 2177 959 m -1894 X s 2177 1148 m -1894 X s 2177 1338 m -1894 X s 2177 1338 m -1894 X s black[  ] 0 sd 6 lw 2177 202 m 1225 Y s 1 1 1
 c black 283 202 m 592 X 1 Y 119 X 86 Y 118 X 1080 Y 118 X -1098 Y 119 X -69 Y 828 X s 283 202 m 1894 X s
 gsave  2268 1552 0 0 C 2118.52 35.2635 t 0 r /Helvetica findfont 78.6648 sf 0 0 m (s]) show NC gr 
 gsave  2268 1552 0 0 C 2072.41 35.2635 t 0 r /Symbol findfont 78.6648 sf 0 0 m (m) show NC gr 
 gsave  2268 1552 0 0 C 1532.61 35.2635 t 0 r /Helvetica findfont 78.6648 sf 0 0 m (PPS residuals [) show NC gr  520 241 m -39 Y s 579 221 m -19 Y s 639 221 m -19 Y s 698 221 m -19 Y s 757 221 m -19 Y s 816 241 m -39 Y s 875 221 m -19 Y s 934 221 m
 -19 Y s 994 221 m -19 Y s 1053 221 m -19 Y s 1112 241 m -39 Y s 1171 221 m -19 Y s 1230 221 m -19 Y s 1289 221 m -19 Y s 1349 221 m -19 Y s 1408 241 m -39 Y s 1467 221 m -19 Y s 1526 221 m -19 Y s 1585 221 m -19 Y s 1644 221 m -19 Y s 1704 241 m -39
 Y s 1763 221 m -19 Y s 1822 221 m -19 Y s 1881 221 m -19 Y s 1940 221 m -19 Y s 1999 241 m -39 Y s 520 241 m -39 Y s 461 221 m -19 Y s 402 221 m -19 Y s 343 221 m -19 Y s 1999 241 m -39 Y s 2059 221 m -19 Y s 2118 221 m -19 Y s 2177 221 m -19 Y s
 gsave  2268 1552 0 0 C 447.576 135.629 t 0 r /Helvetica findfont 70.5271 sf 0 0 m (\255210) show NC gr 
 gsave  2268 1552 0 0 C 743.247 135.629 t 0 r /Helvetica findfont 70.5271 sf 0 0 m (\255200) show NC gr 
 gsave  2268 1552 0 0 C 1038.92 135.629 t 0 r /Helvetica findfont 70.5271 sf 0 0 m (\255190) show NC gr 
 gsave  2268 1552 0 0 C 1334.59 135.629 t 0 r /Helvetica findfont 70.5271 sf 0 0 m (\255180) show NC gr 
 gsave  2268 1552 0 0 C 1632.97 135.629 t 0 r /Helvetica findfont 70.5271 sf 0 0 m (\255170) show NC gr 
 gsave  2268 1552 0 0 C 1928.64 135.629 t 0 r /Helvetica findfont 70.5271 sf 0 0 m (\255160) show NC gr  283 1427 m 1894 X s 520 1389 m 38 Y s 579 1408 m 19 Y s 639 1408 m 19 Y s 698 1408 m 19 Y s 757 1408 m 19 Y s 816 1389 m 38 Y s 875 1408 m 19 Y s
 934 1408 m 19 Y s 994 1408 m 19 Y s 1053 1408 m 19 Y s 1112 1389 m 38 Y s 1171 1408 m 19 Y s 1230 1408 m 19 Y s 1289 1408 m 19 Y s 1349 1408 m 19 Y s 1408 1389 m 38 Y s 1467 1408 m 19 Y s 1526 1408 m 19 Y s 1585 1408 m 19 Y s 1644 1408 m 19 Y s 1704
 1389 m 38 Y s 1763 1408 m 19 Y s 1822 1408 m 19 Y s 1881 1408 m 19 Y s 1940 1408 m 19 Y s 1999 1389 m 38 Y s 520 1389 m 38 Y s 461 1408 m 19 Y s 402 1408 m 19 Y s 343 1408 m 19 Y s 1999 1389 m 38 Y s 2059 1408 m 19 Y s 2118 1408 m 19 Y s 2177 1408 m
 19 Y s 283 202 m 1225 Y s
 gsave  2268 1552 0 0 C 84.09 1060.62 t 90 r /Helvetica findfont 78.6648 sf 0 0 m (Entries/bin) show NC gr  337 202 m -54 X s 310 249 m -27 X s 310 296 m -27 X s 310 344 m -27 X s 337 391 m -54 X s 310 438 m -27 X s 310 486 m -27 X s 310 533 m -27 X
 s 337 580 m -54 X s 310 628 m -27 X s 310 675 m -27 X s 310 722 m -27 X s 337 770 m -54 X s 310 817 m -27 X s 310 864 m -27 X s 310 912 m -27 X s 337 959 m -54 X s 310 1006 m -27 X s 310 1054 m -27 X s 310 1101 m -27 X s 337 1148 m -54 X s 310 1196
 m -27 X s 310 1243 m -27 X s 310 1291 m -27 X s 337 1338 m -54 X s 337 1338 m -54 X s 310 1385 m -27 X s
 gsave  2268 1552 0 0 C 233.282 176.318 t 0 r /Helvetica findfont 70.5271 sf 0 0 m (0) show NC gr 
 gsave  2268 1552 0 0 C 154.617 366.198 t 0 r /Helvetica findfont 70.5271 sf 0 0 m (200) show NC gr 
 gsave  2268 1552 0 0 C 154.617 553.366 t 0 r /Helvetica findfont 70.5271 sf 0 0 m (400) show NC gr 
 gsave  2268 1552 0 0 C 154.617 743.247 t 0 r /Helvetica findfont 70.5271 sf 0 0 m (600) show NC gr 
 gsave  2268 1552 0 0 C 154.617 933.127 t 0 r /Helvetica findfont 70.5271 sf 0 0 m (800) show NC gr 
 gsave  2268 1552 0 0 C 116.641 1123.01 t 0 r /Helvetica findfont 70.5271 sf 0 0 m (1000) show NC gr 
 gsave  2268 1552 0 0 C 116.641 1312.89 t 0 r /Helvetica findfont 70.5271 sf 0 0 m (1200) show NC gr  2177 202 m 1225 Y s 2123 202 m 54 X s 2150 249 m 27 X s 2150 296 m 27 X s 2150 344 m 27 X s 2123 391 m 54 X s 2150 438 m 27 X s 2150 486 m 27 X s
 2150 533 m 27 X s 2123 580 m 54 X s 2150 628 m 27 X s 2150 675 m 27 X s 2150 722 m 27 X s 2123 770 m 54 X s 2150 817 m 27 X s 2150 864 m 27 X s 2150 912 m 27 X s 2123 959 m 54 X s 2150 1006 m 27 X s 2150 1054 m 27 X s 2150 1101 m 27 X s 2123 1148 m
 54 X s 2150 1196 m 27 X s 2150 1243 m 27 X s 2150 1291 m 27 X s 2123 1338 m 54 X s 2123 1338 m 54 X s 2150 1385 m 27 X s 0.6 0.6 0.6 c black 0.6 0.6 0.6 c
 gsave  2268 1552 0 0 C 1472.93 1478.36 t 0 r /Helvetica findfont 78.6648 sf 0 0 m (plasduino) show NC gr  black 0.6 0.6 0.6 c
 gsave  2268 1552 0 0 C 1494.63 1445.8 t 0 r /Helvetica findfont 37.9761 sf 0 0 m (Open source data acquisition framework) show NC gr  black 0.6 0.6 0.6 c
 gsave  2268 1552 0 0 C 111.216 13.5629 t 0 r /Helvetica findfont 46.1139 sf 0 0 m (http://pythonhosted.org/plasduino/) show NC gr  black 0.6 0.6 0.6 c
 gsave  2268 1552 0 0 C 1472.93 1478.36 t 0 r /Helvetica findfont 78.6648 sf 0 0 m (plasduino) show NC gr  black 0.6 0.6 0.6 c
 gsave  2268 1552 0 0 C 1494.63 1445.8 t 0 r /Helvetica findfont 37.9761 sf 0 0 m (Open source data acquisition framework) show NC gr  black 0.6 0.6 0.6 c
 gsave  2268 1552 0 0 C 111.216 13.5629 t 0 r /Helvetica findfont 46.1139 sf 0 0 m (http://pythonhosted.org/plasduino/) show NC gr 
 gr  gr showpage
end
%%EOF
