%!PS-Adobe-2.0 EPSF-2.0
%%BoundingBox:  0 0 567 388
%%Title: /data/work/plasduino/doc/papers/2013_ncc/figures/pendulum_analog.eps: c1
%%Creator: ROOT Version 5.34/10
%%CreationDate: Fri Nov 29 21:51:23 2013
%%EndComments
%%BeginProlog
80 dict begin
/s {stroke} def /l {lineto} def /m {moveto} def /t {translate} def
/r {rotate} def /rl {roll}  def /R {repeat} def
/d {rlineto} def /rm {rmoveto} def /gr {grestore} def /f {eofill} def
/c {setrgbcolor} def /black {0 setgray} def /sd {setdash} def
/cl {closepath} def /sf {scalefont setfont} def /lw {setlinewidth} def
/box {m dup 0 exch d exch 0 d 0 exch neg d cl} def
/NC{systemdict begin initclip end}def/C{NC box clip newpath}def
/bl {box s} def /bf {box f} def /Y { 0 exch d} def /X { 0 d} def 
/K {{pop pop 0 moveto} exch kshow} bind def
/ita {/ang 15 def gsave [1 0 ang dup sin exch cos div 1 0 0] concat} def 
/mp {newpath /y exch def /x exch def} def
/side {[w .77 mul w .23 mul] .385 w mul sd w 0 l currentpoint t -144 r} def
/mr {mp x y w2 0 360 arc} def /m24 {mr s} def /m20 {mr f} def
/mb {mp x y w2 add m w2 neg 0 d 0 w neg d w 0 d 0 w d cl} def
/mt {mp x y w2 add m w2 neg w neg d w 0 d cl} def
/m21 {mb f} def /m25 {mb s} def /m22 {mt f} def /m26{mt s} def
/m23 {mp x y w2 sub m w2 w d w neg 0 d cl f} def
/m27 {mp x y w2 add m w3 neg w2 neg d w3 w2 neg d w3 w2 d cl s} def
/m28 {mp x w2 sub y w2 sub w3 add m w3 0 d  0 w3 neg d w3 0 d 0 w3 d w3 0 d  0 w3 d w3 neg 0 d 0 w3 d w3 neg 0 d 0 w3 neg d w3 neg 0 d cl s } def
/m29 {mp gsave x w2 sub y w2 add w3 sub m currentpoint t 4 {side} repeat cl fill gr} def
/m30 {mp gsave x w2 sub y w2 add w3 sub m currentpoint t 4 {side} repeat cl s gr} def
/m31 {mp x y w2 sub m 0 w d x w2 sub y m w 0 d x w2 sub y w2 add m w w neg d x w2 sub y w2 sub m w w d s} def
/m32 {mp x y w2 sub m w2 w d w neg 0 d cl s} def
/m33 {mp x y w2 add m w3 neg w2 neg d w3 w2 neg d w3 w2 d cl f} def
/m34 {mp x w2 sub y w2 sub w3 add m w3 0 d  0 w3 neg d w3 0 d 0 w3 d w3 0 d  0 w3 d w3 neg 0 d 0 w3 d w3 neg 0 d 0 w3 neg d w3 neg 0 d cl f } def
/m2 {mp x y w2 sub m 0 w d x w2 sub y m w 0 d s} def
/m5 {mp x w2 sub y w2 sub m w w d x w2 sub y w2 add m w w neg d s} def
/reEncode {exch findfont dup length dict begin {1 index /FID eq  {pop pop} {def} ifelse } forall /Encoding exch def currentdict end dup /FontName get exch definefont pop } def [/Times-Bold /Times-Italic /Times-BoldItalic /Helvetica /Helvetica-Oblique
 /Helvetica-Bold /Helvetica-BoldOblique /Courier /Courier-Oblique /Courier-Bold /Courier-BoldOblique /Times-Roman /AvantGarde-Book /AvantGarde-BookOblique /AvantGarde-Demi /AvantGarde-DemiOblique /Bookman-Demi /Bookman-DemiItalic /Bookman-Light
 /Bookman-LightItalic /Helvetica-Narrow /Helvetica-Narrow-Bold /Helvetica-Narrow-BoldOblique /Helvetica-Narrow-Oblique /NewCenturySchlbk-Roman /NewCenturySchlbk-Bold /NewCenturySchlbk-BoldItalic /NewCenturySchlbk-Italic /Palatino-Bold
 /Palatino-BoldItalic /Palatino-Italic /Palatino-Roman ] {ISOLatin1Encoding reEncode } forall
%%EndProlog
%%BeginSetup
%%EndSetup
newpath  gsave  .25 .25 scale  gsave  0 0 t black[  ] 0 sd 6 lw 1 1 1 c 2268 1552 0 0 bf black 0.8 0.8 0.8 c 629 193 m -47 90 d s 582 283 m 943 334 d s 1525 617 m 77 -59 d s 1602 558 m -973 -365 d s 618 269 m -48 88 d s 570 357 m 962 326 d s 1532 683
 m 78 -57 d s 1610 626 m -992 -357 d s 629 193 m -11 76 d s 582 283 m -12 74 d s 1525 617 m 7 66 d s 1602 558 m 8 68 d s black 629 193 m -47 90 d s 582 283 m 943 334 d s 1525 617 m 77 -59 d s 1602 558 m -973 -365 d s 606 348 m -48 86 d s 558 434 m
 981 317 d s 1539 751 m 80 -56 d s 1619 695 m -1013 -347 d s 629 193 m -23 155 d s 582 283 m -24 151 d s 1525 617 m 14 134 d s 1602 558 m 17 137 d s 1220 694 m -4 28 d s 1216 722 m -13 23 d s 1203 745 m -22 16 d s 1181 761 m -27 6 d s 1154 767 m -32
 -5 d s 1122 762 m -32 -14 d s 1090 748 m -29 -23 d s 1061 725 m -22 -29 d s 1039 696 m -15 -33 d s 1024 663 m -4 -32 d s 1020 631 m 6 -28 d s 1026 603 m 15 -22 d s 1041 581 m 23 -14 d s 1064 567 m 28 -4 d s 1092 563 m 31 6 d s 1123 569 m 30 14 d s
 1153 583 m 26 22 d s 1179 605 m 22 27 d s 1201 632 m 14 31 d s 1215 663 m 5 31 d s 1244 673 m -4 28 d s 1240 701 m -13 23 d s 1227 724 m -21 16 d s 1206 740 m -28 6 d s 1178 746 m -32 -5 d s 1146 741 m -32 -14 d s 1114 727 m -30 -24 d s 1084 703 m
 -23 -29 d s 1061 674 m -14 -33 d s 1047 641 m -5 -33 d s 1042 608 m 6 -29 d s 1048 579 m 15 -22 d s 1063 557 m 23 -13 d s 1086 544 m 29 -4 d s 1115 540 m 30 6 d s 1145 546 m 31 15 d s 1176 561 m 27 22 d s 1203 583 m 22 28 d s 1225 611 m 14 30 d s
 1239 641 m 5 32 d s 1220 694 m 24 -21 d s 1216 722 m 24 -21 d s 1203 745 m 24 -21 d s 1181 761 m 25 -21 d s 1154 767 m 24 -21 d s 1122 762 m 24 -21 d s 1090 748 m 24 -21 d s 1061 725 m 23 -22 d s 1039 696 m 22 -22 d s 1024 663 m 23 -22 d s 1020 631
 m 22 -23 d s 1026 603 m 22 -24 d s 1041 581 m 22 -24 d s 1064 567 m 22 -23 d s 1092 563 m 23 -23 d s 1123 569 m 22 -23 d s 1153 583 m 23 -22 d s 1179 605 m 24 -22 d s 1201 632 m 24 -21 d s 1215 663 m 24 -22 d s 1122 663 m 98 31 d s 1122 663 m 94 59
 d s 1122 663 m 81 82 d s 1122 663 m 59 98 d s 1122 663 m 32 104 d s 1122 663 m 99 Y s 1122 663 m -32 85 d s 1122 663 m -61 62 d s 1122 663 m -83 33 d s 1122 663 m -98 X s 1122 663 m -102 -32 d s 1122 663 m -96 -60 d s 1122 663 m -81 -82 d s 1122 663
 m -58 -96 d s 1122 663 m -30 -100 d s 1122 663 m 1 -94 d s 1122 663 m 31 -80 d s 1122 663 m 57 -58 d s 1122 663 m 79 -31 d s 1122 663 m 93 X s 1146 641 m 98 32 d s 1146 641 m 94 60 d s 1146 641 m 81 83 d s 1146 641 m 60 99 d s 1146 641 m 32 105 d s
 1146 641 m 100 Y s 1146 641 m -32 86 d s 1146 641 m -62 62 d s 1146 641 m -85 33 d s 1146 641 m -99 X s 1146 641 m -104 -33 d s 1146 641 m -98 -62 d s 1146 641 m -83 -84 d s 1146 641 m -60 -97 d s 1146 641 m -31 -101 d s 1146 641 m -1 -95 d s 1146
 641 m 30 -80 d s 1146 641 m 57 -58 d s 1146 641 m 79 -30 d s 1146 641 m 93 X s 1129 744 m -11 10 d s 1118 754 m 20 6 d s 1138 760 m 12 -10 d s 1150 750 m -21 -6 d s 1129 1204 m -13 8 d s 1116 1212 m 23 4 d s 1139 1216 m 13 -7 d s 1152 1209 m -23 -5
 d s 1129 744 m 460 Y s 1118 754 m -2 458 d s 1138 760 m 1 456 d s 1150 750 m 2 459 d s 1133 447 m -2 3 d s 1131 450 m 4 1 d s 1135 451 m 2 -2 d s 1137 449 m -4 -2 d s 1133 555 m -2 3 d s 1131 558 m 4 1 d s 1135 559 m 2 -2 d s 1137 557 m -4 -2 d s
 1133 447 m 108 Y s 1131 450 m 108 Y s 1135 451 m 108 Y s 1137 449 m 108 Y s 621 195 m -32 60 d s 589 255 m 5 2 d s 594 257 m 32 -60 d s 626 197 m -5 -2 d s 591 388 m -32 57 d s 559 445 m 5 2 d s 564 447 m 32 -57 d s 596 390 m -5 -2 d s 621 195 m -30
 193 d s 589 255 m -30 190 d s 594 257 m -30 190 d s 626 197 m -30 193 d s 1585 556 m -50 40 d s 1535 596 m 3 1 d s 1538 597 m 51 -40 d s 1589 557 m -4 -1 d s 1606 728 m -53 36 d s 1553 764 m 3 1 d s 1556 765 m 54 -36 d s 1610 729 m -4 -1 d s 1585
 556 m 21 172 d s 1535 596 m 18 168 d s 1538 597 m 18 168 d s 1589 557 m 21 172 d s
 gsave  2268 1552 0 0 C 396.037 504.54 t 0 r /Helvetica findfont 62.3893 sf 0 0 m (Ground) show NC gr 
 gsave  2268 1552 0 0 C 1551.6 802.924 t 0 r /Helvetica findfont 40.6887 sf 0 0 m (cc) show NC gr 
 gsave  2268 1552 0 0 C 1472.93 816.486 t 0 r /Helvetica findfont 62.3893 sf 0 0 m (+V) show NC gr 
 gsave  2268 1552 0 0 C 906.002 1280.34 t 0 r /Helvetica findfont 62.3893 sf 0 0 m 
 409 374 339 304 290 273 238 203 189 154 119 84 66 31
(To analog input) K NC gr 
 gr  gr showpage
end
%%EOF
