%!PS-Adobe-2.0 EPSF-2.0
%%BoundingBox:  0 0 567 388
%%Title: pendulum_dump.eps: pendulum_dump
%%Creator: ROOT Version 5.32/04
%%CreationDate: Fri Dec  6 09:47:22 2013
%%EndComments
%%BeginProlog
80 dict begin
/s {stroke} def /l {lineto} def /m {moveto} def /t {translate} def
/r {rotate} def /rl {roll}  def /R {repeat} def
/d {rlineto} def /rm {rmoveto} def /gr {grestore} def /f {eofill} def
/c {setrgbcolor} def /black {0 setgray} def /sd {setdash} def
/cl {closepath} def /sf {scalefont setfont} def /lw {setlinewidth} def
/box {m dup 0 exch d exch 0 d 0 exch neg d cl} def
/NC{systemdict begin initclip end}def/C{NC box clip newpath}def
/bl {box s} def /bf {box f} def /Y { 0 exch d} def /X { 0 d} def 
/K {{pop pop 0 moveto} exch kshow} bind def
/ita {/ang 15 def gsave [1 0 ang dup sin exch cos div 1 0 0] concat} def 
/mp {newpath /y exch def /x exch def} def
/side {[w .77 mul w .23 mul] .385 w mul sd w 0 l currentpoint t -144 r} def
/mr {mp x y w2 0 360 arc} def /m24 {mr s} def /m20 {mr f} def
/mb {mp x y w2 add m w2 neg 0 d 0 w neg d w 0 d 0 w d cl} def
/mt {mp x y w2 add m w2 neg w neg d w 0 d cl} def
/m21 {mb f} def /m25 {mb s} def /m22 {mt f} def /m26{mt s} def
/m23 {mp x y w2 sub m w2 w d w neg 0 d cl f} def
/m27 {mp x y w2 add m w3 neg w2 neg d w3 w2 neg d w3 w2 d cl s} def
/m28 {mp x w2 sub y w2 sub w3 add m w3 0 d  0 w3 neg d w3 0 d 0 w3 d w3 0 d  0 w3 d w3 neg 0 d 0 w3 d w3 neg 0 d 0 w3 neg d w3 neg 0 d cl s } def
/m29 {mp gsave x w2 sub y w2 add w3 sub m currentpoint t 4 {side} repeat cl fill gr} def
/m30 {mp gsave x w2 sub y w2 add w3 sub m currentpoint t 4 {side} repeat cl s gr} def
/m31 {mp x y w2 sub m 0 w d x w2 sub y m w 0 d x w2 sub y w2 add m w w neg d x w2 sub y w2 sub m w w d s} def
/m32 {mp x y w2 sub m w2 w d w neg 0 d cl s} def
/m33 {mp x y w2 add m w3 neg w2 neg d w3 w2 neg d w3 w2 d cl f} def
/m34 {mp x w2 sub y w2 sub w3 add m w3 0 d  0 w3 neg d w3 0 d 0 w3 d w3 0 d  0 w3 d w3 neg 0 d 0 w3 d w3 neg 0 d 0 w3 neg d w3 neg 0 d cl f } def
/m2 {mp x y w2 sub m 0 w d x w2 sub y m w 0 d s} def
/m5 {mp x w2 sub y w2 sub m w w d x w2 sub y w2 add m w w neg d s} def
/reEncode {exch findfont dup length dict begin {1 index /FID eq  {pop pop} {def} ifelse } forall /Encoding exch def currentdict end dup /FontName get exch definefont pop } def [/Times-Bold /Times-Italic /Times-BoldItalic /Helvetica /Helvetica-Oblique
 /Helvetica-Bold /Helvetica-BoldOblique /Courier /Courier-Oblique /Courier-Bold /Courier-BoldOblique /Times-Roman /AvantGarde-Book /AvantGarde-BookOblique /AvantGarde-Demi /AvantGarde-DemiOblique /Bookman-Demi /Bookman-DemiItalic /Bookman-Light
 /Bookman-LightItalic /Helvetica-Narrow /Helvetica-Narrow-Bold /Helvetica-Narrow-BoldOblique /Helvetica-Narrow-Oblique /NewCenturySchlbk-Roman /NewCenturySchlbk-Bold /NewCenturySchlbk-BoldItalic /NewCenturySchlbk-Italic /Palatino-Bold
 /Palatino-BoldItalic /Palatino-Italic /Palatino-Roman ] {ISOLatin1Encoding reEncode } forall%%EndProlog
%%BeginSetup
%%EndSetup
newpath  gsave  .25 .25 scale  gsave  0 0 t black[  ] 0 sd 6 lw 1 1 1 c 2268 1552 0 0 bf black 1 1 1 c 2268 931 0 621 bf black 3 lw 1 1 1 c 1894 777 283 650 bf black 1894 777 283 650 bl 1 1 1 c 1894 777 283 650 bf black 1894 777 283 650 bl 6 lw 283
 650 m 1894 X s 0.6 0.6 0.6 c[ 12 12] 0 sd 3 lw 331 1427 m -777 Y s 543 1427 m -777 Y s 755 1427 m -777 Y s 966 1427 m -777 Y s 1178 1427 m -777 Y s 1389 1427 m -777 Y s 1601 1427 m -777 Y s 1813 1427 m -777 Y s 2024 1427 m -777 Y s 331 1427 m -777 Y
 s 2024 1427 m -777 Y s black[  ] 0 sd 6 lw 283 1427 m 1894 X s 283 650 m 777 Y s 0.6 0.6 0.6 c[ 12 12] 0 sd 3 lw 2177 723 m -1894 X s 2177 804 m -1894 X s 2177 885 m -1894 X s 2177 966 m -1894 X s 2177 1047 m -1894 X s 2177 1128 m -1894 X s 2177
 1209 m -1894 X s 2177 1290 m -1894 X s 2177 1371 m -1894 X s 2177 723 m -1894 X s 2177 1371 m -1894 X s black[  ] 0 sd 6 lw 2177 650 m 777 Y s 283 650 m 1894 X s
 gsave  2268 931 0 621 C 1898.81 542.516 t 0 r /Helvetica findfont 78.7107 sf 0 0 m (Time [s]) show NC gr  331 674 m -24 Y s 384 662 m -12 Y s 437 662 m -12 Y s 490 662 m -12 Y s 543 674 m -24 Y s 596 662 m -12 Y s 649 662 m -12 Y s 702 662 m -12 Y s
 755 674 m -24 Y s 808 662 m -12 Y s 860 662 m -12 Y s 913 662 m -12 Y s 966 674 m -24 Y s 1019 662 m -12 Y s 1072 662 m -12 Y s 1125 662 m -12 Y s 1178 674 m -24 Y s 1231 662 m -12 Y s 1284 662 m -12 Y s 1337 662 m -12 Y s 1389 674 m -24 Y s 1442
 662 m -12 Y s 1495 662 m -12 Y s 1548 662 m -12 Y s 1601 674 m -24 Y s 1654 662 m -12 Y s 1707 662 m -12 Y s 1760 662 m -12 Y s 1813 674 m -24 Y s 1866 662 m -12 Y s 1918 662 m -12 Y s 1971 662 m -12 Y s 2024 674 m -24 Y s 331 674 m -24 Y s 2024 674
 m -24 Y s 2077 662 m -12 Y s 2130 662 m -12 Y s 283 1427 m 1894 X s 331 1404 m 23 Y s 384 1416 m 11 Y s 437 1416 m 11 Y s 490 1416 m 11 Y s 543 1404 m 23 Y s 596 1416 m 11 Y s 649 1416 m 11 Y s 702 1416 m 11 Y s 755 1404 m 23 Y s 808 1416 m 11 Y s
 860 1416 m 11 Y s 913 1416 m 11 Y s 966 1404 m 23 Y s 1019 1416 m 11 Y s 1072 1416 m 11 Y s 1125 1416 m 11 Y s 1178 1404 m 23 Y s 1231 1416 m 11 Y s 1284 1416 m 11 Y s 1337 1416 m 11 Y s 1389 1404 m 23 Y s 1442 1416 m 11 Y s 1495 1416 m 11 Y s 1548
 1416 m 11 Y s 1601 1404 m 23 Y s 1654 1416 m 11 Y s 1707 1416 m 11 Y s 1760 1416 m 11 Y s 1813 1404 m 23 Y s 1866 1416 m 11 Y s 1918 1416 m 11 Y s 1971 1416 m 11 Y s 2024 1404 m 23 Y s 331 1404 m 23 Y s 2024 1404 m 23 Y s 2077 1416 m 11 Y s 2130
 1416 m 11 Y s 283 650 m 777 Y s
 gsave  2268 931 0 621 C 75.9522 756.81 t 90 r /Helvetica findfont 78.7107 sf 0 0 m (Position [ADC cnts]) show NC gr  340 723 m -57 X s 312 739 m -29 X s 312 756 m -29 X s 312 772 m -29 X s 312 788 m -29 X s 340 804 m -57 X s 312 820 m -29 X s 312
 837 m -29 X s 312 853 m -29 X s 312 869 m -29 X s 340 885 m -57 X s 312 901 m -29 X s 312 918 m -29 X s 312 934 m -29 X s 312 950 m -29 X s 340 966 m -57 X s 312 982 m -29 X s 312 998 m -29 X s 312 1015 m -29 X s 312 1031 m -29 X s 340 1047 m -57 X
 s 312 1063 m -29 X s 312 1079 m -29 X s 312 1096 m -29 X s 312 1112 m -29 X s 340 1128 m -57 X s 312 1144 m -29 X s 312 1160 m -29 X s 312 1177 m -29 X s 312 1193 m -29 X s 340 1209 m -57 X s 312 1225 m -29 X s 312 1241 m -29 X s 312 1257 m -29 X s
 312 1274 m -29 X s 340 1290 m -57 X s 312 1306 m -29 X s 312 1322 m -29 X s 312 1338 m -29 X s 312 1355 m -29 X s 340 1371 m -57 X s 340 723 m -57 X s 312 707 m -29 X s 312 691 m -29 X s 312 675 m -29 X s 312 659 m -29 X s 340 1371 m -57 X s 312
 1387 m -29 X s 312 1403 m -29 X s 312 1419 m -29 X s
 gsave  2268 931 0 621 C 154.617 697.133 t 0 r /Helvetica findfont 70.5682 sf 0 0 m (400) show NC gr 
 gsave  2268 931 0 621 C 154.617 778.51 t 0 r /Helvetica findfont 70.5682 sf 0 0 m (410) show NC gr 
 gsave  2268 931 0 621 C 154.617 859.888 t 0 r /Helvetica findfont 70.5682 sf 0 0 m (420) show NC gr 
 gsave  2268 931 0 621 C 154.617 941.265 t 0 r /Helvetica findfont 70.5682 sf 0 0 m (430) show NC gr 
 gsave  2268 931 0 621 C 154.617 1019.93 t 0 r /Helvetica findfont 70.5682 sf 0 0 m (440) show NC gr 
 gsave  2268 931 0 621 C 154.617 1101.31 t 0 r /Helvetica findfont 70.5682 sf 0 0 m (450) show NC gr 
 gsave  2268 931 0 621 C 154.617 1182.68 t 0 r /Helvetica findfont 70.5682 sf 0 0 m (460) show NC gr 
 gsave  2268 931 0 621 C 154.617 1264.06 t 0 r /Helvetica findfont 70.5682 sf 0 0 m (470) show NC gr 
 gsave  2268 931 0 621 C 154.617 1345.44 t 0 r /Helvetica findfont 70.5682 sf 0 0 m (480) show NC gr  2177 650 m 777 Y s 2120 723 m 57 X s 2149 739 m 28 X s 2149 756 m 28 X s 2149 772 m 28 X s 2149 788 m 28 X s 2120 804 m 57 X s 2149 820 m 28 X s
 2149 837 m 28 X s 2149 853 m 28 X s 2149 869 m 28 X s 2120 885 m 57 X s 2149 901 m 28 X s 2149 918 m 28 X s 2149 934 m 28 X s 2149 950 m 28 X s 2120 966 m 57 X s 2149 982 m 28 X s 2149 998 m 28 X s 2149 1015 m 28 X s 2149 1031 m 28 X s 2120 1047 m
 57 X s 2149 1063 m 28 X s 2149 1079 m 28 X s 2149 1096 m 28 X s 2149 1112 m 28 X s 2120 1128 m 57 X s 2149 1144 m 28 X s 2149 1160 m 28 X s 2149 1177 m 28 X s 2149 1193 m 28 X s 2120 1209 m 57 X s 2149 1225 m 28 X s 2149 1241 m 28 X s 2149 1257 m 28
 X s 2149 1274 m 28 X s 2120 1290 m 57 X s 2149 1306 m 28 X s 2149 1322 m 28 X s 2149 1338 m 28 X s 2149 1355 m 28 X s 2120 1371 m 57 X s 2120 723 m 57 X s 2149 707 m 28 X s 2149 691 m 28 X s 2149 675 m 28 X s 2149 659 m 28 X s 2120 1371 m 57 X s
 2149 1387 m 28 X s 2149 1403 m 28 X s 2149 1419 m 28 X s 3 lw /w 26 def /w2 {w 2 div} def /w3 {w 3 div} def 441 1355 447 1363 452 1347 457 1322 463 1282 468 1233 473 1168 478 1104 484 1031 489 966 494 893 500 837 505 788 510 748 516 723 521 715 526
 723 532 756 537 788 542 837 547 893 553 958 558 1031 563 1104 569 1168 574 1225 579 1274 585 1314 590 1338 595 1347 601 1347 606 1322 611 1290 617 1241 622 1185 627 1112 632 1047 638 974 643 918 648 853 654 804 659 764 664 739 670 731 675 731 680
 748 686 788 691 829 696 885 702 950 707 1015 712 1088 718 1152 723 1209 728 1257 733 1298 739 1330 744 1338 749 1338 755 1314 760 1290 765 1241 771 1185 776 1128 781 1063 787 990 792 926 797 869 803 820 808 780 813 756 818 739 824 739 829 756 834
 788 840 829 845 877 850 942 856 998 861 1071 866 1128 872 1193 877 1241 882 1282 888 1314 893 1330 898 1330 903 1314 909 1290 914 1241 919 1201 925 1136 930 1071 935 1007 941 942 946 885 951 837 957 796 962 772 967 748 100 { m20} R 973 748 978 756
 983 788 988 820 994 877 999 926 1004 990 1010 1055 1015 1120 1020 1177 1026 1225 1031 1266 1036 1298 1042 1314 1047 1322 1052 1306 1058 1290 1063 1249 1068 1201 1074 1144 1079 1088 1084 1023 1089 966 1095 901 1100 853 1105 812 1111 780 1116 764 1121
 756 1127 764 1132 788 1137 820 1143 869 1148 918 1153 974 1159 1039 1164 1096 1169 1160 1174 1209 1180 1249 1185 1282 1190 1306 1196 1306 1201 1306 1206 1282 1212 1249 1217 1209 1222 1160 1228 1096 1233 1039 1238 974 1244 926 1249 869 1254 829 1259
 796 1265 772 1270 764 1275 772 1281 788 1286 820 1291 861 1297 909 1302 966 1307 1031 1313 1088 1318 1144 1323 1193 1329 1233 1334 1266 1339 1290 1345 1298 1350 1298 1355 1282 1360 1249 1366 1209 1371 1160 1376 1112 1382 1047 1387 998 1392 934 1398
 893 1403 845 1408 812 1413 788 1419 780 1424 780 1429 796 1435 820 1440 861 1445 909 1451 958 1456 1015 1461 1071 1467 1128 1472 1177 1477 1225 1483 1249 1488 1274 1493 1290 1499 1290 100 { m20} R 1504 1274 1509 1249 1515 1209 1520 1168 1525 1120
 1530 1063 1536 1007 1541 958 1546 901 1552 861 1557 820 1562 804 1568 788 1573 788 1578 796 1584 829 1589 853 1594 901 1599 950 1605 1007 1610 1055 1615 1112 1621 1160 1626 1209 1631 1241 1637 1266 1642 1282 1647 1282 1653 1266 1658 1249 1663 1217
 1669 1177 1674 1128 1679 1079 1684 1023 1690 966 1695 918 1700 869 1706 845 1711 812 1716 804 1722 796 1727 804 1732 829 1738 861 1743 893 1748 942 1754 990 1759 1047 1764 1096 1770 1152 1775 1193 1780 1233 1785 1249 1791 1274 1796 1274 1801 1266
 1807 1241 1812 1217 1817 1177 1823 1136 1828 1079 1833 1031 1839 982 1844 934 1849 885 1855 853 1860 829 1865 812 1870 804 1876 812 1881 829 1886 853 1892 893 1897 934 1902 990 1908 1031 1913 1088 1918 1136 1924 1177 1929 1209 1934 1241 1940 1257
 1945 1266 1950 1257 1955 1241 1961 1217 1966 1185 1971 1136 1977 1096 1982 1039 1987 990 1993 942 1998 901 2003 861 2009 837 2014 820 2019 812 98 { m20} R 6 lw 0.95 0.95 0.95 c black 438 1344 m 2 6 d 1 5 d 2 4 d 1 2 d 4 X 1 -3 d 2 -3 d 1 -5 d 2 -7 d
 1 -8 d 2 -9 d 2 -10 d 1 -12 d 2 -13 d 1 -14 d 2 -15 d 2 -16 d 1 -16 d 2 -18 d 1 -19 d 2 -19 d 2 -20 d 1 -20 d 2 -21 d 1 -21 d 2 -21 d 1 -21 d 2 -22 d 2 -21 d 1 -22 d 2 -21 d 1 -20 d 2 -21 d 2 -19 d 1 -19 d 2 -19 d 1 -18 d 2 -16 d 2 -16 d 1 -15 d 2
 -14 d 1 -13 d 2 -12 d 1 -10 d 2 -9 d 2 -8 d 1 -7 d 2 -5 d s 516 723 m 1 -4 d 2 -2 d 2 -1 d 1 1 d 2 1 d 1 4 d 2 4 d 1 6 d 2 8 d 2 8 d 1 10 d 2 11 d 1 13 d 2 13 d 2 15 d 1 15 d 2 17 d 1 17 d 2 18 d 2 19 d 1 19 d 2 20 d 1 20 d 2 21 d 1 20 d 2 21 d 2 21
 d 1 22 d 2 20 d 1 21 d 2 21 d 2 20 d 1 19 d 2 19 d 1 18 d 2 18 d 2 17 d 1 16 d 2 15 d 1 14 d 2 12 d 1 12 d 2 11 d 2 9 d 1 8 d 2 7 d 1 5 d 2 4 d 2 3 d s 594 1349 m 1 1 d 2 X 1 -2 d 2 -3 d 1 -4 d 2 -5 d 2 -7 d 1 -9 d 2 -9 d 1 -11 d 2 -12 d 2 -13 d 1
 -14 d 2 -15 d 1 -15 d 2 -17 d 2 -18 d 1 -18 d 2 -19 d 1 -19 d 2 -20 d 1 -20 d 2 -21 d 2 -20 d 1 -21 d 2 -21 d 1 -20 d 2 -21 d 2 -20 d 1 -19 d 2 -20 d 1 -19 d 2 -18 d 2 -17 d 1 -17 d 2 -16 d 1 -15 d 2 -14 d 1 -12 d 2 -12 d 2 -11 d 1 -9 d 2 -8 d 1 -7
 d 2 -6 d 2 -4 d 1 -3 d 2 -2 d 1 X s 671 727 m 2 1 d 2 3 d 1 4 d 2 5 d 1 6 d 2 8 d 1 9 d 2 10 d 2 12 d 1 12 d 2 14 d 1 14 d 2 16 d 2 16 d 1 17 d 2 18 d 1 18 d 2 19 d 1 19 d 2 20 d 2 20 d 1 20 d 2 21 d 1 20 d 2 20 d 2 21 d 1 19 d 2 20 d 1 19 d 2 19 d
 2 18 d 1 17 d 2 16 d 1 16 d 2 15 d 1 14 d 2 13 d 2 12 d 1 10 d 2 10 d 1 8 d 2 7 d 2 6 d 1 5 d 2 3 d 1 2 d 2 X 2 -1 d 1 -2 d s 749 1336 m 2 -3 d 1 -5 d 2 -6 d 1 -8 d 2 -8 d 2 -10 d 1 -11 d 2 -12 d 1 -13 d 2 -14 d 2 -15 d 1 -16 d 2 -16 d 1 -17 d 2 -18
 d 1 -19 d 2 -19 d 2 -19 d 1 -20 d 2 -20 d 1 -20 d 2 -20 d 2 -19 d 1 -20 d 2 -20 d 1 -19 d 2 -19 d 2 -18 d 1 -18 d 2 -17 d 1 -17 d 2 -15 d 1 -15 d 2 -14 d 2 -13 d 1 -12 d 2 -11 d 1 -9 d 2 -9 d 2 -7 d 1 -6 d 2 -5 d 1 -3 d 2 -2 d 2 -1 d 1 X 2 2 d 1 3 d
 2 5 d s 827 748 m 1 5 d 2 7 d 2 8 d 1 10 d 2 10 d 1 12 d 2 12 d 2 14 d 1 14 d 2 16 d 1 16 d 2 17 d 1 17 d 2 18 d 2 19 d 1 19 d 2 19 d 1 19 d 2 20 d 2 19 d 1 20 d 2 20 d 1 19 d 2 19 d 2 18 d 1 19 d 2 17 d 1 17 d 2 17 d 1 15 d 2 15 d 2 14 d 1 13 d 2
 12 d 1 11 d 2 9 d 2 9 d 1 7 d 2 6 d 1 5 d 2 4 d 2 2 d 1 2 d 2 -1 d 1 -1 d 2 -3 d 1 -4 d 2 -5 d 2 -7 d s 905 1308 m 1 -7 d 2 -9 d 1 -10 d 2 -11 d 2 -13 d 1 -13 d 2 -14 d 1 -15 d 2 -15 d 1 -17 d 2 -17 d 2 -17 d 1 -18 d 2 -19 d 1 -19 d 2 -19 d 2 -19 d
 1 -19 d 2 -19 d 1 -20 d 2 -19 d 2 -18 d 1 -19 d 2 -18 d 1 -17 d 2 -17 d 1 -16 d 2 -16 d 2 -15 d 1 -13 d 2 -13 d 1 -12 d 2 -11 d 2 -10 d 1 -9 d 2 -7 d 1 -7 d 2 -5 d 2 -4 d 1 -2 d 2 -2 d 1 X 2 1 d 1 3 d 2 4 d 2 4 d 1 7 d 2 7 d 1 8 d s 982 782 m 2 10 d
 2 11 d 1 11 d 2 13 d 1 13 d 2 15 d 2 15 d 1 16 d 2 17 d 1 17 d 2 17 d 1 19 d 2 18 d 2 19 d 1 18 d 2 19 d 1 19 d 2 19 d 2 19 d 1 18 d 2 19 d 1 17 d 2 18 d 1 16 d 2 17 d 2 15 d 1 15 d 2 13 d 1 13 d 2 12 d 2 11 d 1 10 d 2 9 d 1 8 d 2 6 d 2 5 d 1 5 d 2
 2 d 1 2 d 2 1 d 1 -1 d 2 -2 d 2 -4 d 1 -4 d 2 -6 d 1 -7 d 2 -8 d 2 -9 d 1 -10 d s 1060 1268 m 2 -12 d 1 -12 d 2 -13 d 2 -14 d 1 -15 d 2 -15 d 1 -16 d 2 -17 d 1 -17 d 2 -18 d 2 -18 d 1 -18 d 2 -19 d 1 -18 d 2 -19 d 2 -19 d 1 -18 d 2 -18 d 1 -18 d 2
 -18 d 1 -17 d 2 -16 d 2 -16 d 1 -16 d 2 -14 d 1 -14 d 2 -13 d 2 -12 d 1 -11 d 2 -10 d 1 -9 d 2 -8 d 2 -6 d 1 -6 d 2 -4 d 1 -3 d 2 -2 d 1 -1 d 2 1 d 2 1 d 1 3 d 2 5 d 1 5 d 2 6 d 2 8 d 1 9 d 2 10 d 1 11 d 2 11 d s 1138 828 m 2 13 d 1 14 d 2 14 d 1 15
 d 2 16 d 1 16 d 2 17 d 2 17 d 1 18 d 2 18 d 1 18 d 2 18 d 2 18 d 1 19 d 2 18 d 1 18 d 2 17 d 1 18 d 2 17 d 2 16 d 1 16 d 2 15 d 1 15 d 2 13 d 2 13 d 1 12 d 2 11 d 1 10 d 2 9 d 2 8 d 1 7 d 2 6 d 1 4 d 2 4 d 1 2 d 2 1 d 2 -1 d 1 -1 d 2 -3 d 1 -4 d 2
 -5 d 2 -6 d 1 -7 d 2 -8 d 1 -10 d 2 -10 d 2 -11 d 1 -13 d 2 -13 d s 1216 1217 m 1 -14 d 2 -14 d 1 -16 d 2 -16 d 2 -16 d 1 -17 d 2 -17 d 1 -18 d 2 -17 d 2 -18 d 1 -18 d 2 -18 d 1 -18 d 2 -18 d 1 -17 d 2 -17 d 2 -17 d 1 -16 d 2 -16 d 1 -15 d 2 -15 d 2
 -13 d 1 -13 d 2 -12 d 1 -11 d 2 -10 d 2 -9 d 1 -8 d 2 -7 d 1 -6 d 2 -5 d 1 -4 d 2 -2 d 2 -1 d 1 X 2 1 d 1 2 d 2 4 d 2 4 d 1 6 d 2 7 d 1 8 d 2 9 d 2 10 d 1 11 d 2 12 d 1 13 d 2 13 d 1 14 d s 1293 882 m 2 15 d 2 16 d 1 16 d 2 16 d 1 17 d 2 17 d 2 18 d
 1 17 d 2 18 d 1 17 d 2 18 d 1 18 d 2 17 d 2 17 d 1 16 d 2 16 d 1 16 d 2 15 d 2 14 d 1 14 d 2 13 d 1 11 d 2 12 d 2 10 d 1 9 d 2 8 d 1 7 d 2 6 d 1 5 d 2 4 d 2 2 d 1 2 d 2 X 1 -1 d 2 -2 d 2 -3 d 1 -4 d 2 -6 d 1 -6 d 2 -8 d 2 -8 d 1 -10 d 2 -10 d 1 -12
 d 2 -12 d 1 -13 d 2 -14 d 2 -14 d 1 -15 d s 1371 1161 m 2 -16 d 1 -16 d 2 -17 d 2 -16 d 1 -18 d 2 -17 d 1 -17 d 2 -17 d 2 -18 d 1 -17 d 2 -17 d 1 -17 d 2 -16 d 1 -16 d 2 -15 d 2 -15 d 1 -14 d 2 -14 d 1 -13 d 2 -12 d 2 -11 d 1 -10 d 2 -9 d 1 -8 d 2
 -8 d 1 -6 d 2 -5 d 2 -4 d 1 -3 d 2 -1 d 1 -1 d 2 1 d 2 1 d 1 3 d 2 4 d 1 5 d 2 6 d 2 8 d 1 8 d 2 9 d 1 10 d 2 11 d 1 12 d 2 13 d 2 13 d 1 14 d 2 15 d 1 15 d 2 16 d s 1449 941 m 2 16 d 1 16 d 2 17 d 1 17 d 2 17 d 2 17 d 1 17 d 2 17 d 1 17 d 2 16 d 1
 16 d 2 16 d 2 15 d 1 15 d 2 14 d 1 14 d 2 12 d 2 12 d 1 11 d 2 11 d 1 9 d 2 8 d 1 8 d 2 6 d 2 5 d 1 4 d 2 3 d 1 2 d 2 1 d 2 X 1 -2 d 2 -2 d 1 -4 d 2 -5 d 2 -5 d 1 -7 d 2 -8 d 1 -9 d 2 -10 d 1 -10 d 2 -12 d 2 -12 d 1 -13 d 2 -14 d 1 -14 d 2 -15 d 2
 -15 d 1 -16 d 2 -16 d s 1527 1101 m 1 -16 d 2 -17 d 2 -17 d 1 -16 d 2 -17 d 1 -17 d 2 -16 d 1 -16 d 2 -16 d 2 -16 d 1 -15 d 2 -15 d 1 -14 d 2 -13 d 2 -13 d 1 -12 d 2 -11 d 1 -10 d 2 -9 d 1 -9 d 2 -7 d 2 -7 d 1 -5 d 2 -4 d 1 -4 d 2 -2 d 2 -1 d 1 X 2
 1 d 1 3 d 2 3 d 2 4 d 1 6 d 2 6 d 1 8 d 2 8 d 1 9 d 2 11 d 2 11 d 1 12 d 2 12 d 1 14 d 2 13 d 2 15 d 1 15 d 2 15 d 1 16 d 2 16 d 2 16 d s 1605 1000 m 1 17 d 2 16 d 1 17 d 2 16 d 1 16 d 2 16 d 2 16 d 1 15 d 2 15 d 1 15 d 2 14 d 2 13 d 1 13 d 2 11 d 1
 12 d 2 10 d 1 9 d 2 9 d 2 7 d 1 7 d 2 5 d 1 5 d 2 3 d 2 3 d 1 1 d 2 X 1 -1 d 2 -2 d 2 -3 d 1 -4 d 2 -5 d 1 -6 d 2 -7 d 1 -8 d 2 -9 d 2 -10 d 1 -11 d 2 -11 d 1 -12 d 2 -13 d 2 -14 d 1 -14 d 2 -14 d 1 -15 d 2 -16 d 2 -15 d 1 -16 d 2 -16 d 1 -17 d s
 1682 1042 m 2 -16 d 1 -16 d 2 -16 d 2 -16 d 1 -15 d 2 -15 d 1 -15 d 2 -15 d 2 -13 d 1 -14 d 2 -12 d 1 -12 d 2 -11 d 1 -10 d 2 -10 d 2 -8 d 1 -8 d 2 -7 d 1 -5 d 2 -5 d 2 -4 d 1 -2 d 2 -2 d 3 X 2 2 d 1 3 d 2 3 d 1 5 d 2 6 d 1 7 d 2 7 d 2 9 d 1 10 d 2
 10 d 1 11 d 2 12 d 2 12 d 1 13 d 2 14 d 1 14 d 2 15 d 2 15 d 1 15 d 2 16 d 1 16 d 2 16 d 1 16 d 2 15 d s 1760 1057 m 2 16 d 1 16 d 2 15 d 1 15 d 2 15 d 2 14 d 1 14 d 2 13 d 1 12 d 2 12 d 2 11 d 1 11 d 2 9 d 1 9 d 2 7 d 1 7 d 2 6 d 2 5 d 1 4 d 2 2 d
 1 2 d 2 1 d 2 -1 d 1 -1 d 2 -2 d 1 -4 d 2 -4 d 1 -6 d 2 -6 d 2 -7 d 1 -9 d 2 -9 d 1 -10 d 2 -11 d 2 -11 d 1 -12 d 2 -13 d 1 -13 d 2 -14 d 2 -15 d 1 -14 d 2 -15 d 1 -15 d 2 -16 d 1 -16 d 2 -15 d 2 -16 d 1 -15 d 2 -16 d s 1838 987 m 1 -15 d 2 -15 d 2
 -14 d 1 -14 d 2 -14 d 1 -13 d 2 -12 d 2 -12 d 1 -11 d 2 -10 d 1 -10 d 2 -8 d 1 -8 d 2 -7 d 2 -6 d 1 -5 d 2 -4 d 1 -3 d 2 -2 d 2 -1 d 1 X 2 1 d 1 2 d 2 4 d 1 4 d 2 5 d 2 6 d 1 7 d 2 8 d 1 9 d 2 9 d 2 11 d 1 11 d 2 12 d 1 12 d 2 13 d 2 13 d 1 14 d 2
 15 d 1 14 d 2 15 d 1 16 d 2 15 d 2 15 d 1 16 d 2 15 d 1 15 d 2 15 d 2 14 d s 1916 1109 m 1 15 d 2 14 d 1 13 d 2 13 d 2 12 d 1 12 d 2 11 d 1 11 d 2 9 d 1 9 d 2 8 d 2 7 d 1 6 d 2 5 d 1 4 d 2 3 d 2 2 d 1 1 d 2 1 d 1 -1 d 2 -2 d 1 -3 d 2 -4 d 2 -5 d 1
 -5 d 2 -7 d 1 -8 d 2 -8 d 2 -9 d 1 -10 d 2 -11 d 1 -12 d 2 -12 d 2 -12 d 1 -13 d 2 -14 d 1 -14 d 2 -14 d 1 -15 d 2 -15 d 2 -15 d 1 -15 d 2 -15 d 1 -15 d 2 -15 d 2 -15 d 1 -14 d 2 -14 d 1 -14 d s 1993 939 m 2 -13 d 2 -13 d 1 -13 d 2 -11 d 1 -11 d 2
 -11 d 1 -9 d 2 -9 d 2 -8 d 1 -7 d 2 -6 d 1 -5 d 2 -5 d 2 -3 d 1 -2 d 2 -2 d 1 X 2 1 d 1 1 d s 0.6 0.6 0.6 c black 0.6 0.6 0.6 c
 gsave  2268 931 0 621 C 1472.93 1478.36 t 0 r /Helvetica findfont 78.7107 sf 0 0 m (plasduino) show NC gr  black 0.6 0.6 0.6 c
 gsave  2268 931 0 621 C 1494.63 1445.8 t 0 r /Helvetica findfont 37.9983 sf 0 0 m (Open source data acquisition framework) show NC gr  black 1 1 1 c 2268 621 0 0 bf black 3 lw 1 1 1 c 1894 412 283 202 bf black 1894 412 283 202 bl 1 1 1 c 1894 412
 283 202 bf black 1894 412 283 202 bl 6 lw 283 202 m 1894 X s 0.6 0.6 0.6 c[ 12 12] 0 sd 3 lw 331 614 m -412 Y s 543 614 m -412 Y s 755 614 m -412 Y s 966 614 m -412 Y s 1178 614 m -412 Y s 1389 614 m -412 Y s 1601 614 m -412 Y s 1813 614 m -412 Y s
 2024 614 m -412 Y s 331 614 m -412 Y s 2024 614 m -412 Y s black[  ] 0 sd 6 lw 283 614 m 1894 X s 283 202 m 412 Y s 0.6 0.6 0.6 c[ 12 12] 0 sd 3 lw 2177 299 m -1894 X s 2177 408 m -1894 X s 2177 517 m -1894 X s 2177 299 m -1894 X s 2177 517 m -1894
 X s black[  ] 0 sd 6 lw 2177 202 m 412 Y s 283 202 m 1894 X s
 gsave  2268 621 0 0 C 1898.81 37.9761 t 0 r /Helvetica findfont 78.9408 sf 0 0 m (Time [s]) show NC gr  331 217 m -15 Y s 384 209 m -7 Y s 437 209 m -7 Y s 490 209 m -7 Y s 543 217 m -15 Y s 596 209 m -7 Y s 649 209 m -7 Y s 702 209 m -7 Y s 755 217
 m -15 Y s 808 209 m -7 Y s 860 209 m -7 Y s 913 209 m -7 Y s 966 217 m -15 Y s 1019 209 m -7 Y s 1072 209 m -7 Y s 1125 209 m -7 Y s 1178 217 m -15 Y s 1231 209 m -7 Y s 1284 209 m -7 Y s 1337 209 m -7 Y s 1389 217 m -15 Y s 1442 209 m -7 Y s 1495
 209 m -7 Y s 1548 209 m -7 Y s 1601 217 m -15 Y s 1654 209 m -7 Y s 1707 209 m -7 Y s 1760 209 m -7 Y s 1813 217 m -15 Y s 1866 209 m -7 Y s 1918 209 m -7 Y s 1971 209 m -7 Y s 2024 217 m -15 Y s 331 217 m -15 Y s 2024 217 m -15 Y s 2077 209 m -7 Y
 s 2130 209 m -7 Y s
 gsave  2268 621 0 0 C 290.246 138.342 t 0 r /Helvetica findfont 70.7745 sf 0 0 m (54) show NC gr 
 gsave  2268 621 0 0 C 504.54 138.342 t 0 r /Helvetica findfont 70.7745 sf 0 0 m (56) show NC gr 
 gsave  2268 621 0 0 C 716.121 138.342 t 0 r /Helvetica findfont 70.7745 sf 0 0 m (58) show NC gr 
 gsave  2268 621 0 0 C 927.702 138.342 t 0 r /Helvetica findfont 70.7745 sf 0 0 m (60) show NC gr 
 gsave  2268 621 0 0 C 1139.28 138.342 t 0 r /Helvetica findfont 70.7745 sf 0 0 m (62) show NC gr 
 gsave  2268 621 0 0 C 1348.15 138.342 t 0 r /Helvetica findfont 70.7745 sf 0 0 m (64) show NC gr 
 gsave  2268 621 0 0 C 1562.45 138.342 t 0 r /Helvetica findfont 70.7745 sf 0 0 m (66) show NC gr 
 gsave  2268 621 0 0 C 1774.03 138.342 t 0 r /Helvetica findfont 70.7745 sf 0 0 m (68) show NC gr 
 gsave  2268 621 0 0 C 1985.61 138.342 t 0 r /Helvetica findfont 70.7745 sf 0 0 m (70) show NC gr  283 614 m 1894 X s 331 599 m 15 Y s 384 607 m 7 Y s 437 607 m 7 Y s 490 607 m 7 Y s 543 599 m 15 Y s 596 607 m 7 Y s 649 607 m 7 Y s 702 607 m 7 Y s
 755 599 m 15 Y s 808 607 m 7 Y s 860 607 m 7 Y s 913 607 m 7 Y s 966 599 m 15 Y s 1019 607 m 7 Y s 1072 607 m 7 Y s 1125 607 m 7 Y s 1178 599 m 15 Y s 1231 607 m 7 Y s 1284 607 m 7 Y s 1337 607 m 7 Y s 1389 599 m 15 Y s 1442 607 m 7 Y s 1495 607 m 7
 Y s 1548 607 m 7 Y s 1601 599 m 15 Y s 1654 607 m 7 Y s 1707 607 m 7 Y s 1760 607 m 7 Y s 1813 599 m 15 Y s 1866 607 m 7 Y s 1918 607 m 7 Y s 1971 607 m 7 Y s 2024 599 m 15 Y s 331 599 m 15 Y s 2024 599 m 15 Y s 2077 607 m 7 Y s 2130 607 m 7 Y s 283
 202 m 412 Y s
 gsave  2268 621 0 0 C 84.09 238.707 t 90 r /Helvetica findfont 78.9408 sf 0 0 m (Residuals) show NC gr  329 299 m -46 X s 306 321 m -23 X s 306 343 m -23 X s 306 365 m -23 X s 306 386 m -23 X s 329 408 m -46 X s 306 430 m -23 X s 306 452 m -23 X s
 306 473 m -23 X s 306 495 m -23 X s 329 517 m -46 X s 329 299 m -46 X s 306 278 m -23 X s 306 256 m -23 X s 306 234 m -23 X s 306 213 m -23 X s 329 517 m -46 X s 306 538 m -23 X s 306 560 m -23 X s 306 582 m -23 X s 306 604 m -23 X s
 gsave  2268 621 0 0 C 211.581 273.971 t 0 r /Helvetica findfont 70.7745 sf 0 0 m (\2551) show NC gr 
 gsave  2268 621 0 0 C 233.282 382.474 t 0 r /Helvetica findfont 70.7745 sf 0 0 m (0) show NC gr 
 gsave  2268 621 0 0 C 233.282 490.977 t 0 r /Helvetica findfont 70.7745 sf 0 0 m (1) show NC gr  2177 202 m 412 Y s 2132 299 m 45 X s 2154 321 m 23 X s 2154 343 m 23 X s 2154 365 m 23 X s 2154 386 m 23 X s 2132 408 m 45 X s 2154 430 m 23 X s 2154
 452 m 23 X s 2154 473 m 23 X s 2154 495 m 23 X s 2132 517 m 45 X s 2132 299 m 45 X s 2154 278 m 23 X s 2154 256 m 23 X s 2154 234 m 23 X s 2154 213 m 23 X s 2132 517 m 45 X s 2154 538 m 23 X s 2154 560 m 23 X s 2154 582 m 23 X s 2154 604 m 23 X s 3
 lw 441 399 447 428 452 345 457 360 463 359 468 404 473 359 478 401 484 377 489 458 494 397 500 439 505 456 510 415 516 400 521 396 526 392 532 510 537 439 542 423 547 386 553 349 558 391 563 433 569 412 574 371 579 350 585 373 590 375 595 361 601
 446 606 406 611 456 617 444 622 455 627 342 632 389 638 333 643 472 648 402 654 439 659 414 664 427 670 461 675 398 680 351 686 445 691 376 696 391 702 401 707 373 712 444 718 440 723 405 728 377 733 380 739 461 744 408 749 445 755 353 760 446 765
 389 771 348 776 406 781 414 787 347 792 357 797 387 803 415 808 408 813 450 818 413 824 396 829 400 834 439 840 424 845 382 850 455 856 341 861 441 866 349 872 430 877 398 882 384 888 439 893 458 898 451 903 418 909 459 914 348 919 488 925 393 930
 363 935 355 941 329 946 367 951 398 957 406 962 472 967 361 100 { m20} R 973 387 978 331 983 422 988 350 994 466 999 369 1004 403 1010 426 1015 463 1020 445 1026 412 1031 395 1036 416 1042 402 1047 463 1052 388 1058 490 1063 440 1068 409 1074 377
 1079 416 1084 377 1089 438 1095 356 1100 387 1105 406 1111 386 1116 415 1121 373 1127 363 1132 394 1137 372 1143 429 1148 377 1153 344 1159 398 1164 349 1169 452 1174 419 1180 393 1185 386 1190 454 1196 372 1201 469 1206 415 1212 422 1217 452 1222
 483 1228 374 1233 411 1238 341 1244 463 1249 383 1254 411 1259 410 1265 359 1270 354 1275 387 1281 356 1286 383 1291 379 1297 372 1302 379 1307 466 1313 440 1318 434 1323 407 1329 376 1334 361 1339 402 1345 393 1350 449 1355 457 1360 407 1366 398
 1371 385 1376 453 1382 350 1387 472 1392 361 1398 495 1403 421 1408 436 1413 411 1419 439 1424 404 1429 418 1435 383 1440 426 1445 450 1451 402 1456 398 1461 397 1467 422 1472 400 1477 472 1483 333 1488 350 1493 417 1499 434 100 { m20} R 1504 399
 1509 412 1515 357 1520 408 1525 437 1530 409 1536 397 1541 473 1546 397 1552 435 1557 356 1562 462 1568 413 1573 416 1578 358 1584 474 1589 342 1594 421 1599 412 1605 442 1610 358 1615 400 1621 385 1626 455 1631 420 1637 407 1642 445 1647 425 1653
 349 1658 426 1663 435 1669 443 1674 433 1679 480 1684 442 1690 391 1695 416 1700 346 1706 495 1711 410 1716 494 1722 422 1727 406 1732 456 1738 476 1743 380 1748 410 1754 366 1759 417 1764 369 1770 472 1775 432 1780 496 1785 355 1791 474 1796 421
 1801 415 1807 341 1812 414 1817 381 1823 441 1828 345 1833 389 1839 428 1844 454 1849 383 1855 429 1860 462 1865 464 1870 425 1876 446 1881 428 1886 383 1892 436 1897 396 1902 495 1908 357 1913 436 1918 441 1924 404 1929 352 1934 411 1940 397 1945
 421 1950 378 1955 373 1961 396 1966 439 1971 351 1977 453 1982 360 1987 379 1993 380 1998 414 2003 359 2009 407 2014 432 2019 423 98 { m20} R 6 lw 0.6 0.6 0.6 c black 0.6 0.6 0.6 c
 gsave  2268 621 0 0 C 111.216 10.8503 t 0 r /Helvetica findfont 46.2757 sf 0 0 m (http://pythonhosted.org/plasduino/) show NC gr 
 gr  gr showpage
end
%%EOF
