%!PS-Adobe-2.0 EPSF-2.0
%%BoundingBox:  0 0 567 388
%%Title: /data/work/plasduino/doc/papers/2013_ncc/figures/pendulum_digital.eps: c1
%%Creator: ROOT Version 5.34/10
%%CreationDate: Fri Nov 29 21:24:54 2013
%%EndComments
%%BeginProlog
80 dict begin
/s {stroke} def /l {lineto} def /m {moveto} def /t {translate} def
/r {rotate} def /rl {roll}  def /R {repeat} def
/d {rlineto} def /rm {rmoveto} def /gr {grestore} def /f {eofill} def
/c {setrgbcolor} def /black {0 setgray} def /sd {setdash} def
/cl {closepath} def /sf {scalefont setfont} def /lw {setlinewidth} def
/box {m dup 0 exch d exch 0 d 0 exch neg d cl} def
/NC{systemdict begin initclip end}def/C{NC box clip newpath}def
/bl {box s} def /bf {box f} def /Y { 0 exch d} def /X { 0 d} def 
/K {{pop pop 0 moveto} exch kshow} bind def
/ita {/ang 15 def gsave [1 0 ang dup sin exch cos div 1 0 0] concat} def 
/mp {newpath /y exch def /x exch def} def
/side {[w .77 mul w .23 mul] .385 w mul sd w 0 l currentpoint t -144 r} def
/mr {mp x y w2 0 360 arc} def /m24 {mr s} def /m20 {mr f} def
/mb {mp x y w2 add m w2 neg 0 d 0 w neg d w 0 d 0 w d cl} def
/mt {mp x y w2 add m w2 neg w neg d w 0 d cl} def
/m21 {mb f} def /m25 {mb s} def /m22 {mt f} def /m26{mt s} def
/m23 {mp x y w2 sub m w2 w d w neg 0 d cl f} def
/m27 {mp x y w2 add m w3 neg w2 neg d w3 w2 neg d w3 w2 d cl s} def
/m28 {mp x w2 sub y w2 sub w3 add m w3 0 d  0 w3 neg d w3 0 d 0 w3 d w3 0 d  0 w3 d w3 neg 0 d 0 w3 d w3 neg 0 d 0 w3 neg d w3 neg 0 d cl s } def
/m29 {mp gsave x w2 sub y w2 add w3 sub m currentpoint t 4 {side} repeat cl fill gr} def
/m30 {mp gsave x w2 sub y w2 add w3 sub m currentpoint t 4 {side} repeat cl s gr} def
/m31 {mp x y w2 sub m 0 w d x w2 sub y m w 0 d x w2 sub y w2 add m w w neg d x w2 sub y w2 sub m w w d s} def
/m32 {mp x y w2 sub m w2 w d w neg 0 d cl s} def
/m33 {mp x y w2 add m w3 neg w2 neg d w3 w2 neg d w3 w2 d cl f} def
/m34 {mp x w2 sub y w2 sub w3 add m w3 0 d  0 w3 neg d w3 0 d 0 w3 d w3 0 d  0 w3 d w3 neg 0 d 0 w3 d w3 neg 0 d 0 w3 neg d w3 neg 0 d cl f } def
/m2 {mp x y w2 sub m 0 w d x w2 sub y m w 0 d s} def
/m5 {mp x w2 sub y w2 sub m w w d x w2 sub y w2 add m w w neg d s} def
/reEncode {exch findfont dup length dict begin {1 index /FID eq  {pop pop} {def} ifelse } forall /Encoding exch def currentdict end dup /FontName get exch definefont pop } def [/Times-Bold /Times-Italic /Times-BoldItalic /Helvetica /Helvetica-Oblique
 /Helvetica-Bold /Helvetica-BoldOblique /Courier /Courier-Oblique /Courier-Bold /Courier-BoldOblique /Times-Roman /AvantGarde-Book /AvantGarde-BookOblique /AvantGarde-Demi /AvantGarde-DemiOblique /Bookman-Demi /Bookman-DemiItalic /Bookman-Light
 /Bookman-LightItalic /Helvetica-Narrow /Helvetica-Narrow-Bold /Helvetica-Narrow-BoldOblique /Helvetica-Narrow-Oblique /NewCenturySchlbk-Roman /NewCenturySchlbk-Bold /NewCenturySchlbk-BoldItalic /NewCenturySchlbk-Italic /Palatino-Bold
 /Palatino-BoldItalic /Palatino-Italic /Palatino-Roman ] {ISOLatin1Encoding reEncode } forall
%%EndProlog
%%BeginSetup
%%EndSetup
newpath  gsave  .25 .25 scale  gsave  0 0 t black[  ] 0 sd 6 lw 1 1 1 c 2268 1552 0 0 bf black 462 532 m -70 129 d s 392 661 m 1216 328 d s 1608 989 m 136 -74 d s 1744 915 m -1282 -383 d s 418 769 m -70 116 d s 348 885 m 1281 289 d s 1629 1174 m 144
 -66 d s 1773 1108 m -1355 -339 d s 462 532 m -44 237 d s 392 661 m -44 224 d s 1608 989 m 21 185 d s 1744 915 m 29 193 d s 1066 542 m -5 5 d s 1061 547 m 138 47 d s 1199 594 m 6 -6 d s 1205 588 m -139 -46 d s 1059 932 m -6 5 d s 1053 937 m 153 38 d
 s 1206 975 m 6 -4 d s 1212 971 m -153 -39 d s 1066 542 m -7 390 d s 1061 547 m -8 390 d s 1199 594 m 7 381 d s 1205 588 m 7 383 d s 0.8 0.8 0.8 c 348 885 m 73 667 d s 1629 1174 m -27 378 d s 418 769 m 77 783 d s 1773 1108 m -41 444 d s black[ 20 20]
 0 sd 1389 417 m -446 421 d s
 gsave  2268 1552 0 0 C 1245.07 349.923 t 0 r /Helvetica findfont 78.6648 sf 0 0 m (Photo\255gate) show NC gr 
 gsave  2268 1552 0 0 C 1245.07 621.181 t 0 r /Helvetica findfont 78.6648 sf 0 0 m (Flag) show NC gr [  ] 0 sd 3 lw /w 22 def /w2 {w 2 div} def /w3 {w 3 div} def 1134 658 m20[ 20 20] 0 sd 6 lw
 gr  gr showpage
end
%%EOF
