Frame,Time,x1,y1,x2,y2
[],[s],[cm],[cm],[cm],[cm]
15,0.560,64.99,51.46,99.59,16.41
16,0.600,64.77,51.46,96.27,19.74
17,0.640,64.99,51.68,92.72,23.07
18,0.680,65.21,51.46,88.72,26.40
19,0.720,65.21,51.68,84.95,29.94
20,0.760,65.21,51.68,81.63,33.49
21,0.800,64.99,51.68,77.41,36.82
22,0.840,64.99,51.46,73.86,40.15
23,0.880,64.77,51.46,69.65,43.92
24,0.920,64.10,53.01,67.21,45.69
25,0.960,62.33,55.90,64.99,46.14
26,1.000,60.78,58.56,62.99,46.80
27,1.040,59.00,61.44,60.78,47.69
28,1.080,57.45,63.88,58.56,48.58
29,1.120,55.67,66.99,56.34,49.24
30,1.160,53.90,69.21,54.12,50.13
31,1.200,52.35,72.09,52.13,50.79
32,1.240,50.79,74.97,49.91,51.68
33,1.280,49.24,77.63,47.91,52.57
34,1.320,47.69,80.07,45.91,53.23
35,1.360,45.91,82.96,43.25,53.90
36,1.400,44.36,85.62,41.70,54.34
37,1.440,42.37,88.28,39.48,55.45
38,1.480,41.26,90.94,37.49,56.12
39,1.520,39.26,93.83,35.05,56.78
40,1.560,38.15,96.27,33.05,57.45
