#Creator: eventBuffer
#Creation time: Wed Nov 27 14:39:21 2013
#Time	Period	Transit time
#[s]	[s]	[s]
3.639436	2.329229	0.005452
4.803440	2.326835	0.005476
5.966271	2.324508	0.005506
7.127948	2.322234	0.005536
8.288505	2.320007	0.005562
9.447955	2.317812	0.005590
10.606317	2.315669	0.005618
11.763624	2.313574	0.005644
12.919891	2.311530	0.005670
14.075154	2.309531	0.005696
15.229422	2.307566	0.005724
16.382720	2.305626	0.005752
17.535048	2.303715	0.005780
18.686435	2.301850	0.005806
19.836898	2.300029	0.005832
20.986464	2.298237	0.005860
22.135135	2.296485	0.005886
23.282949	2.294762	0.005914
24.429897	2.293065	0.005942
25.576014	2.291400	0.005968
26.721297	2.289756	0.005994
27.865770	2.288148	0.006020
29.009445	2.286570	0.006046
30.152340	2.285011	0.006072
31.294456	2.283476	0.006100
32.435816	2.281964	0.006128
33.576420	2.280476	0.006152
34.716292	2.279012	0.006180
35.855432	2.277577	0.006208
36.993869	2.276171	0.006234
38.131603	2.274792	0.006262
39.268661	2.273432	0.006286
40.405035	2.272093	0.006310
41.540754	2.270778	0.006340
42.675813	2.269484	0.006370
43.810238	2.268210	0.006396
44.944023	2.266954	0.006422
46.077192	2.265716	0.006448
47.209739	2.264494	0.006474
48.341686	2.263289	0.006500
49.473028	2.262104	0.006528
50.603790	2.260939	0.006556
51.733967	2.259787	0.006582
52.863577	2.258651	0.006606
53.992618	2.257532	0.006632
55.121109	2.256428	0.006658
56.249046	2.255345	0.006684
57.376454	2.254281	0.006712
58.503327	2.253229	0.006738
59.629683	2.252192	0.006766
60.755519	2.251169	0.006794
61.880852	2.250157	0.006820
63.005676	2.249161	0.006848
64.130013	2.248182	0.006874
65.253858	2.247214	0.006900
66.377227	2.246260	0.006926
67.500118	2.245321	0.006952
68.622548	2.244393	0.006980
69.744511	2.243474	0.007006
70.866022	2.242564	0.007032
71.987075	2.241666	0.007058
73.107688	2.240777	0.007084
74.227852	2.239900	0.007112
75.347588	2.239038	0.007140
76.466890	2.238185	0.007168
77.585773	2.237340	0.007194
78.704230	2.236510	0.007220
79.822283	2.235693	0.007246
80.939923	2.234881	0.007274
82.057164	2.234077	0.007300
83.174000	2.233282	0.007324
84.290446	2.232496	0.007352
85.406496	2.231720	0.007380
86.522166	2.230956	0.007408
87.637452	2.230202	0.007436
88.752368	2.229457	0.007460
89.866909	2.228720	0.007486
90.981088	2.227988	0.007516
92.094897	2.227264	0.007542
93.208352	2.226555	0.007568
94.321452	2.225861	0.007596
95.434213	2.225169	0.007626
96.546621	2.224478	0.007654
97.658691	2.223795	0.007678
98.770416	2.223124	0.007704
99.881815	2.222461	0.007730
100.992877	2.221804	0.007758
102.103619	2.221151	0.007786
103.214028	2.220505	0.007812
104.324124	2.219870	0.007840
105.433898	2.219243	0.007868
106.543367	2.218622	0.007894
107.652520	2.218003	0.007920
108.761370	2.217393	0.007948
109.869913	2.216791	0.007978
110.978161	2.216191	0.008006
112.086104	2.215602	0.008032
113.193763	2.215021	0.008058
114.301125	2.214443	0.008086
115.408206	2.213872	0.008112
116.514997	2.213310	0.008138
117.621516	2.212751	0.008168
118.727748	2.212193	0.008196
119.833709	2.211646	0.008222
120.939394	2.211111	0.008248
122.044820	2.210579	0.008276
123.149973	2.210047	0.008306
124.254867	2.209520	0.008334
125.359493	2.208998	0.008362
126.463865	2.208481	0.008390
127.567974	2.207973	0.008416
128.671838	2.207470	0.008440
129.775444	2.206969	0.008468
130.878807	2.206477	0.008498
131.981921	2.205990	0.008526
133.084797	2.205504	0.008554
134.187425	2.205022	0.008582
135.289819	2.204540	0.008610
136.391965	2.204064	0.008638
137.493883	2.203601	0.008666
138.595566	2.203141	0.008692
139.697024	2.202683	0.008720
140.798249	2.202233	0.008750
141.899257	2.201788	0.008778
143.000037	2.201344	0.008806
144.100601	2.200898	0.008834
145.200935	2.200462	0.008862
146.301063	2.200036	0.008890
147.400971	2.199608	0.008918
148.500671	2.199184	0.008946
149.600155	2.198766	0.008974
150.699437	2.198350	0.009002
151.798505	2.197938	0.009030
152.897375	2.197529	0.009058
153.996034	2.197121	0.009088
155.094496	2.196718	0.009116
156.192752	2.196323	0.009144
157.290819	2.195934	0.009174
158.388686	2.195546	0.009200
159.486365	2.195163	0.009226
160.583849	2.194783	0.009254
161.681148	2.194400	0.009284
162.778249	2.194021	0.009314
163.875169	2.193644	0.009342
164.971893	2.193273	0.009370
166.068442	2.192916	0.009400
167.164809	2.192559	0.009430
168.261001	2.192196	0.009458
169.357005	2.191836	0.009486
170.452837	2.191482	0.009514
171.548487	2.191134	0.009542
172.643971	2.190791	0.009570
173.739278	2.190448	0.009600
174.834419	2.190105	0.009630
175.929383	2.189766	0.009658
177.024185	2.189431	0.009686
178.118814	2.189098	0.009716
179.213283	2.188769	0.009746
180.307583	2.188444	0.009774
181.401727	2.188119	0.009802
182.495702	2.187800	0.009832
183.589527	2.187485	0.009862
184.683187	2.187169	0.009890
185.776696	2.186858	0.009916
186.870045	2.186548	0.009946
187.963244	2.186235	0.009976
189.056280	2.185927	0.010004
190.149171	2.185628	0.010034
191.241908	2.185330	0.010064
192.334501	2.185030	0.010094
193.426938	2.184734	0.010124
194.519235	2.184439	0.010154
195.611377	2.184142	0.010182
196.703377	2.183851	0.010210
197.795228	2.183570	0.010240
198.886947	2.183293	0.010270
199.978521	2.183013	0.010302
201.069960	2.182729	0.010332
202.161250	2.182450	0.010360
203.252410	2.182177	0.010392
204.343427	2.181901	0.010422
205.434311	2.181629	0.010450
206.525056	2.181368	0.010480
207.615679	2.181105	0.010510
208.706161	2.180840	0.010538
209.796519	2.180581	0.010566
210.886742	2.180320	0.010596
211.976839	2.180061	0.010626
213.066803	2.179809	0.010658
214.156648	2.179555	0.010688
215.246358	2.179301	0.010720
216.335949	2.179055	0.010750
217.425413	2.178812	0.010778
218.514761	2.178565	0.010810
219.603978	2.178316	0.010840
220.693077	2.178071	0.010870
221.782049	2.177834	0.010898
222.870911	2.177598	0.010926
223.959647	2.177361	0.010958
225.048272	2.177125	0.010988
226.136772	2.176895	0.011020
227.225167	2.176669	0.011054
228.313441	2.176439	0.011082
229.401606	2.176207	0.011112
230.489648	2.175977	0.011144
231.577583	2.175749	0.011174
232.665397	2.175523	0.011206
233.753106	2.175306	0.011236
234.840703	2.175088	0.011266
235.928194	2.174861	0.011296
237.015564	2.174642	0.011328
238.102836	2.174435	0.011360
239.189999	2.174226	0.011390
240.277062	2.174012	0.011420
241.364011	2.173801	0.011450
242.450863	2.173595	0.011482
243.537606	2.173389	0.011516
244.624252	2.173177	0.011548
245.710783	2.172969	0.011578
246.797221	2.172776	0.011610
247.883559	2.172583	0.011642
248.969804	2.172380	0.011672
250.055939	2.172177	0.011702
251.141981	2.171976	0.011734
252.227915	2.171778	0.011766
253.313759	2.171586	0.011798
254.399501	2.171396	0.011830
255.485155	2.171208	0.011862
256.570709	2.171020	0.011894
257.656175	2.170826	0.011922
258.741535	2.170633	0.011954
259.826808	2.170454	0.011988
260.911989	2.170276	0.012018
261.997084	2.170092	0.012048
263.082081	2.169913	0.012082
264.166997	2.169728	0.012114
265.251809	2.169541	0.012146
266.336538	2.169366	0.012180
267.421175	2.169195	0.012210
268.505733	2.169014	0.012242
269.590189	2.168832	0.012274
270.674565	2.168657	0.012306
271.758846	2.168486	0.012340
272.843051	2.168321	0.012374
273.927167	2.168150	0.012406
275.011201	2.167973	0.012438
276.095140	2.167801	0.012472
277.179002	2.167634	0.012504
278.262774	2.167468	0.012536
279.346470	2.167310	0.012568
280.430084	2.167154	0.012600
281.513624	2.166988	0.012632
282.597072	2.166827	0.012664
283.680451	2.166674	0.012698
284.763746	2.166518	0.012732
285.846969	2.166365	0.012762
286.930111	2.166214	0.012794
288.013183	2.166051	0.012830
289.096162	2.165890	0.012864
290.179073	2.165739	0.012898
291.261901	2.165585	0.012930
292.344658	2.165429	0.012960
293.427330	2.165275	0.012996
294.509933	2.165126	0.013030
295.592456	2.164982	0.013060
296.674915	2.164832	0.013094
297.757288	2.164680	0.013128
298.839595	2.164538	0.013162
299.921826	2.164398	0.013196
301.003993	2.164258	0.013230
302.086084	2.164118	0.013264
303.168111	2.163972	0.013298
304.250056	2.163829	0.013332
305.331940	2.163689	0.013364
306.413745	2.163544	0.013398
307.495484	2.163404	0.013432
308.577149	2.163269	0.013466
309.658753	2.163135	0.013502
310.740284	2.163005	0.013536
311.821758	2.162871	0.013568
312.903155	2.162730	0.013602
313.984488	2.162595	0.013636
315.065750	2.162473	0.013668
316.146961	2.162349	0.013702
317.228099	2.162216	0.013738
318.309177	2.162087	0.013774
319.390186	2.161960	0.013808
320.471137	2.161829	0.013842
321.552015	2.161697	0.013878
322.632834	2.161567	0.013912
323.713582	2.161443	0.013948
324.794277	2.161308	0.013982
325.874890	2.161171	0.014016
326.955448	2.161060	0.014052
328.035950	2.160947	0.014088
329.116395	2.160820	0.014122
330.196770	2.160705	0.014156
331.277100	2.160592	0.014192
332.357362	2.160472	0.014228
333.437572	2.160349	0.014264
334.517711	2.160224	0.014298
335.597796	2.160096	0.014332
336.677807	2.159967	0.014366
337.757763	2.159852	0.014402
338.837659	2.159742	0.014438
339.917505	2.159628	0.014474
340.997287	2.159514	0.014510
342.077019	2.159405	0.014542
343.156692	2.159300	0.014576
344.236319	2.159180	0.014614
345.315872	2.159062	0.014652
346.395381	2.158966	0.014686
347.474838	2.158865	0.014720
348.554246	2.158754	0.014756
349.633592	2.158644	0.014792
350.712890	2.158525	0.014828
351.792117	2.158410	0.014866
352.871300	2.158316	0.014900
353.950433	2.158219	0.014934
355.029519	2.158096	0.014974
356.108529	2.157978	0.015010
357.187497	2.157881	0.015046
358.266410	2.157785	0.015084
359.345282	2.157692	0.015120
360.424102	2.157594	0.015156
361.502876	2.157487	0.015192
362.581589	2.157385	0.015226
363.660261	2.157271	0.015262
364.738860	2.157159	0.015300
365.817420	2.157064	0.015336
366.895924	2.156962	0.015372
367.974382	2.156877	0.015408
369.052801	2.156804	0.015446
370.131186	2.156709	0.015488
371.209510	2.156604	0.015524
372.287790	2.156505	0.015556
373.366015	2.156412	0.015594
374.444202	2.156316	0.015632
375.522331	2.156222	0.015670
376.600424	2.156127	0.015708
377.678458	2.156036	0.015744
378.756460	2.155957	0.015780
379.834415	2.155872	0.015818
380.912332	2.155779	0.015856
381.990194	2.155686	0.015892
383.068018	2.155587	0.015928
384.145781	2.155490	0.015966
385.223508	2.155408	0.016004
386.301189	2.155328	0.016042
387.378836	2.155226	0.016080
388.456415	2.155115	0.016118
389.533951	2.155022	0.016154
390.611437	2.154939	0.016194
391.688890	2.154854	0.016236
392.766291	2.154763	0.016274
393.843653	2.154672	0.016310
394.920963	2.154586	0.016346
395.998239	2.154503	0.016382
397.075466	2.154421	0.016420
398.152660	2.154337	0.016460
399.229803	2.154254	0.016498
400.306914	2.154173	0.016540
401.383976	2.154093	0.016580
402.461007	2.154011	0.016614
403.537987	2.153934	0.016650
404.614941	2.153864	0.016690
405.691851	2.153783	0.016730
406.768724	2.153704	0.016768
407.845555	2.153637	0.016806
408.922361	2.153556	0.016846
409.999111	2.153470	0.016886
411.075831	2.153394	0.016926
412.152505	2.153313	0.016966
413.229144	2.153233	0.017004
414.305738	2.153159	0.017044
415.382303	2.153084	0.017082
416.458822	2.153010	0.017120
417.535313	2.152935	0.017162
418.611757	2.152865	0.017202
419.688178	2.152795	0.017240
420.764552	2.152713	0.017280
421.840891	2.152633	0.017322
422.917185	2.152563	0.017362
423.993454	2.152494	0.017400
425.069679	2.152423	0.017438
426.145877	2.152355	0.017478
427.222034	2.152286	0.017520
428.298163	2.152210	0.017562
429.374244	2.152136	0.017604
430.450299	2.152067	0.017642
431.526311	2.151999	0.017682
432.602298	2.151933	0.017724
433.678244	2.151868	0.017764
434.754166	2.151798	0.017804
435.830042	2.151725	0.017844
436.905891	2.151657	0.017882
437.981699	2.151582	0.017922
439.057473	2.151501	0.017966
440.133200	2.151440	0.018008
441.208913	2.151384	0.018046
442.284584	2.151312	0.018088
443.360225	2.151243	0.018130
444.435827	2.151178	0.018170
445.511403	2.151114	0.018210
446.586941	2.151060	0.018254
447.662463	2.151003	0.018298
448.737944	2.150932	0.018340
449.813395	2.150862	0.018382
450.888806	2.150799	0.018424
451.964194	2.150734	0.018468
453.039540	2.150660	0.018508
454.114854	2.150581	0.018548
455.190121	2.150515	0.018590
456.265369	2.150463	0.018630
457.340584	2.150413	0.018672
458.415782	2.150348	0.018716
459.490932	2.150287	0.018756
460.566069	2.150241	0.018794
461.641173	2.150185	0.018838
462.716254	2.150117	0.018884
463.791290	2.150048	0.018928
464.866302	2.149990	0.018972
465.941280	2.149931	0.019016
467.016233	2.149862	0.019058
468.091142	2.149799	0.019100
469.166032	2.149729	0.019144
470.240871	2.149657	0.019186
471.315689	2.149601	0.019226
472.390472	2.149547	0.019268
473.465236	2.149501	0.019312
474.539973	2.149455	0.019358
475.614691	2.149399	0.019402
476.689372	2.149350	0.019444
477.764041	2.149291	0.019486
478.838663	2.149222	0.019530
479.913263	2.149169	0.019574
480.987832	2.149120	0.019616
482.062383	2.149062	0.019658
483.136894	2.149006	0.019704
484.211389	2.148953	0.019750
485.285847	2.148899	0.019790
486.360288	2.148853	0.019832
487.434700	2.148810	0.019876
488.509098	2.148751	0.019924
489.583451	2.148692	0.019970
490.657790	2.148640	0.020012
491.732091	2.148583	0.020058
492.806373	2.148541	0.020102
493.880632	2.148498	0.020144
494.954871	2.148439	0.020190
496.029071	2.148387	0.020238
497.103258	2.148341	0.020284
498.177412	2.148281	0.020328
499.251539	2.148223	0.020374
500.325635	2.148176	0.020418
501.399715	2.148122	0.020462
502.473757	2.148072	0.020510
503.547787	2.148028	0.020554
504.621785	2.147980	0.020598
505.695767	2.147926	0.020646
506.769711	2.147873	0.020694
507.843640	2.147810	0.020736
508.917521	2.147752	0.020778
509.991392	2.147703	0.020824
511.065224	2.147648	0.020872
512.139040	2.147611	0.020920
513.212835	2.147575	0.020966
514.286615	2.147517	0.021010
515.360352	2.147466	0.021056
516.434081	2.147433	0.021102
517.507785	2.147394	0.021146
518.581475	2.147344	0.021194
519.655129	2.147298	0.021242
520.728773	2.147251	0.021290
521.802380	2.147194	0.021340
522.875967	2.147145	0.021386
523.949525	2.147110	0.021430
525.023077	2.147067	0.021474
526.096592	2.147022	0.021520
527.170099	2.146991	0.021570
528.243583	2.146954	0.021618
529.317053	2.146896	0.021666
530.390479	2.146839	0.021714
531.463892	2.146799	0.021760
532.537278	2.146768	0.021808
533.610660	2.146727	0.021856
534.684005	2.146660	0.021906
535.757320	2.146594	0.021956
536.830599	2.146554	0.022002
537.903874	2.146518	0.022048
538.977117	2.146477	0.022094
540.050351	2.146437	0.022142
541.123554	2.146392	0.022192
542.196743	2.146353	0.022238
543.269907	2.146315	0.022286
544.343058	2.146271	0.022336
545.416178	2.146233	0.022384
546.489291	2.146190	0.022434
547.562368	2.146150	0.022484
548.635441	2.146122	0.022530
549.708490	2.146088	0.022580
550.781529	2.146042	0.022630
551.854532	2.145993	0.022676
552.927522	2.145954	0.022724
554.000486	2.145923	0.022776
555.073445	2.145890	0.022826
556.146376	2.145852	0.022876
557.219297	2.145804	0.022926
558.292180	2.145757	0.022976
559.365054	2.145722	0.023028
560.437902	2.145678	0.023076
561.510732	2.145629	0.023124
562.583531	2.145599	0.023174
563.656331	2.145568	0.023226
564.729099	2.145518	0.023278
565.801849	2.145468	0.023326
566.874567	2.145428	0.023378
567.947277	2.145389	0.023430
569.019956	2.145362	0.023476
570.092639	2.145340	0.023526
571.165296	2.145301	0.023580
572.237940	2.145257	0.023628
573.310553	2.145220	0.023678
574.383160	2.145187	0.023732
575.455740	2.145155	0.023784
576.528315	2.145120	0.023838
577.600860	2.145081	0.023888
578.673396	2.145046	0.023936
579.745906	2.145014	0.023988
580.818410	2.144977	0.024040
581.890883	2.144944	0.024094
582.963354	2.144911	0.024148
584.035794	2.144871	0.024196
585.108225	2.144836	0.024250
586.180630	2.144804	0.024308
587.253029	2.144765	0.024358
588.325395	2.144728	0.024406
589.397757	2.144694	0.024458
590.470089	2.144655	0.024514
591.542412	2.144617	0.024568
592.614706	2.144588	0.024620
593.687000	2.144560	0.024672
594.759266	2.144520	0.024728
595.831520	2.144474	0.024784
596.903740	2.144441	0.024836
597.975961	2.144429	0.024886
599.048169	2.144418	0.024942
600.120379	2.144382	0.024998
601.192551	2.144341	0.025050
602.264720	2.144306	0.025104
603.336857	2.144266	0.025158
604.408986	2.144225	0.025212
605.481082	2.144193	0.025264
606.553179	2.144176	0.025318
607.625258	2.144154	0.025376
608.697333	2.144124	0.025430
609.769382	2.144089	0.025484
610.841422	2.144041	0.025540
611.913423	2.143992	0.025594
612.985414	2.143968	0.025648
614.057391	2.143952	0.025706
615.129366	2.143902	0.025764
616.201293	2.143849	0.025818
617.273215	2.143820	0.025870
618.345113	2.143801	0.025926
619.417016	2.143778	0.025984
620.488891	2.143740	0.026038
621.560756	2.143709	0.026092
622.632600	2.143698	0.026152
623.704454	2.143665	0.026208
624.776265	2.143623	0.026262
625.848077	2.143613	0.026322
626.919878	2.143583	0.026376
627.991660	2.143536	0.026432
629.063414	2.143522	0.026492
630.135182	2.143505	0.026548
631.206919	2.143458	0.026602
632.278640	2.143409	0.026660
633.350328	2.143377	0.026720
634.422017	2.143354	0.026774
635.493682	2.143318	0.026832
636.565335	2.143283	0.026894
637.636965	2.143261	0.026950
638.708596	2.143234	0.027000
639.780199	2.143198	0.027062
640.851794	2.143159	0.027124
641.923358	2.143123	0.027180
642.994917	2.143097	0.027238
644.066455	2.143086	0.027294
645.138003	2.143070	0.027354
646.209525	2.143048	0.027414
647.281051	2.143028	0.027470
648.352553	2.142999	0.027526
649.424050	2.142965	0.027584
650.495518	2.142928	0.027644
651.566978	2.142891	0.027704
652.638409	2.142864	0.027762
653.709842	2.142843	0.027820
654.781252	2.142817	0.027880
655.852659	2.142779	0.027942
656.924031	2.142745	0.028002
657.995404	2.142723	0.028060
659.066754	2.142703	0.028124
660.138107	2.142677	0.028186
661.209431	2.142647	0.028238
662.280754	2.142621	0.028296
663.352052	2.142600	0.028360
664.423354	2.142577	0.028420
665.494629	2.142559	0.028482
666.565913	2.142542	0.028542
667.637171	2.142509	0.028602
668.708422	2.142478	0.028664
669.779649	2.142462	0.028726
670.850884	2.142445	0.028788
671.922094	2.142419	0.028852
672.993303	2.142391	0.028914
674.064485	2.142372	0.028970
675.135675	2.142362	0.029030
676.206847	2.142340	0.029094
677.278015	2.142298	0.029154
678.349145	2.142261	0.029218
679.420276	2.142247	0.029284
680.491392	2.142224	0.029344
681.562500	2.142187	0.029408
682.633579	2.142178	0.029470
683.704678	2.142174	0.029528
684.775753	2.142148	0.029594
685.846826	2.142105	0.029660
686.917858	2.142075	0.029720
687.988901	2.142079	0.029786
689.059937	2.142070	0.029854
690.130971	2.142027	0.029918
691.201964	2.141981	0.029984
692.272952	2.141956	0.030044
693.343920	2.141944	0.030108
694.414896	2.141938	0.030180
695.485858	2.141933	0.030244
696.556829	2.141911	0.030302
697.627769	2.141878	0.030370
698.698707	2.141839	0.030438
699.769608	2.141801	0.030500
700.840508	2.141785	0.030568
701.911393	2.141767	0.030634
702.982275	2.141731	0.030694
704.053124	2.141707	0.030760
705.123982	2.141689	0.030828
706.194813	2.141671	0.030890
707.265653	2.141654	0.030954
708.336467	2.141622	0.031022
709.407275	2.141603	0.031090
710.478070	2.141601	0.031156
711.548876	2.141587	0.031224
712.619657	2.141556	0.031294
713.690432	2.141514	0.031356
714.761171	2.141488	0.031418
715.831920	2.141479	0.031488
716.902650	2.141468	0.031560
717.973388	2.141445	0.031628
719.044095	2.141416	0.031694
720.114804	2.141391	0.031760
721.185486	2.141369	0.031824
722.256173	2.141350	0.031894
723.326836	2.141332	0.031964
724.397505	2.141318	0.032030
725.468154	2.141305	0.032100
726.538810	2.141283	0.032172
727.609437	2.141256	0.032238
728.680066	2.141233	0.032304
729.750670	2.141206	0.032376
730.821272	2.141176	0.032444
731.891846	2.141151	0.032512
732.962423	2.141134	0.032582
734.032980	2.141120	0.032652
735.103543	2.141106	0.032722
736.174086	2.141107	0.032792
737.244650	2.141094	0.032864
738.315180	2.141057	0.032940
739.385707	2.141040	0.033006
740.456220	2.141031	0.033072
741.526738	2.141006	0.033148
742.597226	2.140983	0.033220
743.667721	2.140959	0.033294
744.738185	2.140941	0.033366
745.808662	2.140938	0.033428
746.879123	2.140921	0.033498
747.949583	2.140898	0.033574
749.020021	2.140885	0.033646
750.090468	2.140863	0.033720
751.160884	2.140839	0.033792
752.231307	2.140818	0.033862
753.301702	2.140797	0.033936
754.372104	2.140775	0.034008
755.442477	2.140748	0.034078
756.512852	2.140727	0.034152
757.583204	2.140713	0.034232
758.653565	2.140692	0.034306
759.723896	2.140678	0.034372
760.794243	2.140673	0.034446
761.864569	2.140657	0.034522
762.934900	2.140636	0.034596
764.005205	2.140618	0.034670
765.075518	2.140588	0.034748
766.145793	2.140565	0.034826
767.216083	2.140562	0.034894
768.286355	2.140544	0.034966
769.356627	2.140523	0.035046
770.426878	2.140506	0.035124
771.497133	2.140474	0.035198
772.567352	2.140457	0.035272
773.637590	2.140459	0.035348
774.707811	2.140451	0.035426
775.778041	2.140438	0.035502
776.848249	2.140424	0.035578
777.918465	2.140391	0.035654
778.988640	2.140366	0.035728
780.058831	2.140361	0.035806
781.129001	2.140349	0.035886
782.199180	2.140339	0.035964
783.269340	2.140327	0.036044
784.339507	2.140303	0.036122
785.409643	2.140284	0.036198
786.479791	2.140279	0.036278
787.549922	2.140263	0.036352
788.620054	2.140227	0.036432
789.690149	2.140198	0.036518
790.760252	2.140183	0.036592
791.830332	2.140182	0.036664
792.900434	2.140181	0.036748
793.970513	2.140160	0.036834
795.040594	2.140140	0.036912
796.110653	2.140125	0.036990
797.180719	2.140095	0.037070
798.250748	2.140072	0.037148
799.320791	2.140069	0.037230
800.390817	2.140067	0.037310
801.460858	2.140054	0.037392
802.530871	2.140020	0.037478
803.600878	2.139973	0.037556
804.670844	2.139947	0.037636
805.740825	2.139942	0.037718
806.810786	2.139929	0.037800
807.880754	2.139915	0.037884
808.950701	2.139900	0.037966
810.020654	2.139878	0.038048
811.090579	2.139857	0.038130
812.160511	2.139838	0.038210
813.230417	2.139820	0.038294
814.300331	2.139797	0.038378
815.370214	2.139778	0.038456
816.440109	2.139766	0.038538
817.509980	2.139753	0.038620
818.579862	2.139737	0.038700
819.649717	2.139722	0.038790
820.719584	2.139696	0.038876
821.789413	2.139669	0.038954
822.859253	2.139657	0.039038
823.929070	2.139642	0.039124
824.998895	2.139628	0.039206
826.068698	2.139634	0.039288
827.138529	2.139640	0.039374
828.208338	2.139619	0.039464
829.278148	2.139597	0.039548
830.347935	2.139592	0.039634
831.417740	2.139582	0.039724
832.487517	2.139562	0.039806
833.557302	2.139537	0.039892
834.627054	2.139525	0.039980
835.696827	2.139505	0.040070
836.766559	2.139474	0.040162
837.836301	2.139462	0.040246
838.906021	2.139449	0.040326
839.975750	2.139429	0.040408
841.045450	2.139416	0.040500
842.115166	2.139397	0.040592
843.184847	2.139366	0.040678
844.254532	2.139342	0.040768
845.324189	2.139326	0.040854
846.393858	2.139306	0.040940
847.463495	2.139285	0.041030
848.533143	2.139289	0.041118
849.602784	2.139296	0.041208
850.672439	2.139284	0.041298
851.742068	2.139276	0.041392
852.811715	2.139246	0.041482
853.881314	2.139225	0.041572
854.950940	2.139239	0.041664
856.020553	2.139236	0.041758
857.090176	2.139220	0.041848
858.159773	2.139211	0.041938
859.229387	2.139202	0.042034
860.298975	2.139169	0.042126
861.368556	2.139123	0.042216
862.438098	2.139109	0.042304
863.507665	2.139109	0.042394
864.577207	2.139108	0.042486
865.646773	2.139097	0.042582
866.716304	2.139056	0.042676
867.785829	2.139027	0.042766
868.855331	2.139022	0.042862
869.924851	2.139017	0.042958
870.994348	2.139006	0.043056
872.063857	2.138997	0.043150
873.133345	2.138994	0.043242
874.202851	2.138989	0.043338
875.272334	2.138979	0.043432
876.341830	2.138960	0.043528
877.411294	2.138948	0.043624
878.480778	2.138951	0.043716
879.550245	2.138944	0.043810
880.619722	2.138915	0.043908
881.689160	2.138898	0.044008
882.758620	2.138864	0.044104
883.828024	2.138813	0.044196
884.897433	2.138813	0.044290
885.966837	2.138822	0.044390
887.036255	2.138814	0.044490
888.105651	2.138816	0.044590
889.175071	2.138821	0.044686
890.244472	2.138816	0.044784
891.313887	2.138801	0.044886
892.383273	2.138789	0.044986
893.452676	2.138734	0.045084
894.522007	2.138672	0.045186
895.591348	2.138661	0.045284
896.660668	2.138661	0.045380
897.730009	2.138667	0.045482
898.799335	2.138667	0.045582
899.868676	2.138625	0.045680
900.937960	2.138585	0.045780
902.007261	2.138584	0.045874
903.076544	2.138582	0.045968
904.145843	2.138563	0.046070
905.215107	2.138545	0.046170
906.284388	2.138529	0.046268
907.353636	2.138512	0.046364
908.422900	2.138500	0.046464
909.492136	2.138484	0.046568
910.561384	2.138467	0.046668
911.630603	2.138456	0.046766
912.699840	2.138443	0.046864
913.769046	2.138428	0.046964
914.838268	2.138419	0.047064
915.907465	2.138418	0.047166
916.976686	2.138417	0.047268
918.045882	2.138403	0.047368
919.115089	2.138386	0.047466
920.184268	2.138377	0.047568
921.253466	2.138380	0.047672
922.322648	2.138381	0.047772
923.391847	2.138375	0.047874
924.461023	2.138366	0.047982
925.530213	2.138348	0.048086
926.599371	2.138335	0.048190
927.668548	2.138331	0.048292
928.737702	2.138328	0.048396
929.806876	2.138323	0.048504
930.876025	2.138323	0.048614
931.945199	2.138286	0.048718
933.014311	2.138218	0.048822
934.083417	2.138196	0.048930
935.152507	2.138191	0.049034
936.221608	2.138158	0.049132
937.290665	2.138168	0.049234
938.359776	2.138151	0.049344
939.428816	2.138089	0.049448
940.497865	2.138078	0.049550
941.566894	2.138084	0.049656
942.635949	2.138121	0.049762
943.705015	2.138153	0.049870
944.774102	2.138112	0.049976
945.843127	2.138063	0.050086
946.912165	2.138036	0.050194
947.981163	2.138016	0.050298
949.050181	2.138008	0.050410
950.119171	2.137997	0.050518
951.188178	2.137960	0.050624
952.257131	2.137922	0.050730
953.326100	2.137911	0.050836
954.395042	2.137872	0.050944
955.463972	2.137804	0.051052
956.532846	2.137765	0.051148
957.601737	2.137782	0.051242
958.670628	2.137800	0.051348
959.739537	2.137765	0.051454
960.808393	2.137732	0.051554
961.877269	2.137772	0.051658
962.946165	2.137812	0.051770
964.015081	2.137767	0.051874
965.083932	2.137717	0.051972
966.152798	2.137725	0.052076
967.221657	2.137743	0.052182
968.290541	2.137713	0.052290
969.359370	2.137680	0.052396
970.428221	2.137677	0.052498
971.497047	2.137672	0.052602
972.565893	2.137662	0.052714
973.634709	2.137648	0.052818
974.703541	2.137639	0.052914
975.772348	2.137632	0.053024
976.841173	2.137625	0.053130
977.909973	2.137619	0.053230
978.978792	2.137607	0.053344
980.047580	2.137603	0.053460
981.116395	2.137617	0.053566
982.185197	2.137617	0.053666
983.254012	2.137571	0.053780
984.322768	2.137531	0.053888
985.391543	2.137517	0.053990
986.460285	2.137510	0.054102
987.529053	2.137522	0.054210
988.597807	2.137528	0.054318
989.666581	2.137518	0.054426
990.735325	2.137502	0.054534
991.804083	2.137404	0.054642
992.872729	2.137318	0.054742
993.941401	2.137327	0.054846
995.010056	2.137322	0.054952
996.078723	2.137311	0.055058
997.147367	2.137314	0.055162
998.216037	2.137303	0.055258
999.284670	2.137287	0.055360
1000.353324	2.137286	0.055464
1001.421956	2.137283	0.055568
1002.490607	2.137277	0.055674
1003.559233	2.137273	0.055778
1004.627880	2.137263	0.055880
1005.696496	2.137255	0.055984
1006.765135	2.137243	0.056090
1007.833739	2.137224	0.056198
1008.902359	2.137226	0.056302
1009.970965	2.137237	0.056410
1011.039596	2.137231	0.056520
1012.108196	2.137212	0.056624
1013.176808	2.137203	0.056728
1014.245399	2.137202	0.056838
1015.314010	2.137194	0.056948
1016.382593	2.137187	0.057054
1017.451197	2.137182	0.057162
1018.519775	2.137177	0.057262
1019.588374	2.137174	0.057368
1020.656949	2.137176	0.057482
1021.725550	2.137168	0.057592
1022.794117	2.137157	0.057698
1023.862707	2.137154	0.057810
1024.931271	2.137149	0.057922
1025.999856	2.137141	0.058028
1027.068412	2.137133	0.058136
1028.136989	2.137111	0.058242
1029.205523	2.137089	0.058354
1030.274078	2.137099	0.058468
1031.342622	2.137107	0.058580
1032.411185	2.137089	0.058694
1033.479711	2.137079	0.058802
1034.548264	2.137091	0.058900
1035.616802	2.137092	0.059016
1036.685356	2.137081	0.059136
1037.753883	2.137081	0.059242
1038.822437	2.137062	0.059358
1039.890945	2.137040	0.059474
1040.959477	2.137049	0.059578
1042.027994	2.137057	0.059688
1043.096534	2.137050	0.059808
1044.165044	2.137042	0.059924
1045.233576	2.137025	0.060028
1046.302069	2.137007	0.060142
1047.370583	2.137011	0.060262
1048.439080	2.137015	0.060380
1049.507598	2.136993	0.060500
1050.576073	2.136969	0.060614
1051.644567	2.136973	0.060722
1052.713046	2.136985	0.060832
1053.781552	2.136990	0.060952
1054.850036	2.136990	0.061072
1055.918542	2.136973	0.061192
1056.987009	2.136934	0.061310
1058.055476	2.136900	0.061420
1059.123909	2.136903	0.061538
1060.192379	2.136907	0.061658
1061.260816	2.136913	0.061768
1062.329292	2.136924	0.061888
1063.397740	2.136908	0.062008
1064.466200	2.136891	0.062128
1065.534631	2.136875	0.062250
1066.603075	2.136850	0.062366
1067.671481	2.136847	0.062486
1068.739922	2.136858	0.062600
1069.808339	2.136857	0.062718
1070.876779	2.136854	0.062846
1071.945193	2.136833	0.062962
1073.013612	2.136796	0.063072
1074.081989	2.136771	0.063198
1075.150383	2.136765	0.063314
1076.218754	2.136740	0.063424
1077.287123	2.136694	0.063534
1078.355448	2.136692	0.063648
1079.423815	2.136711	0.063770
1080.492159	2.136713	0.063886
1081.560528	2.136711	0.064000
1082.628870	2.136712	0.064120
1083.697240	2.136694	0.064236
1084.765564	2.136682	0.064348
1085.833922	2.136700	0.064460
1086.902264	2.136705	0.064584
1087.970627	2.136684	0.064710
1089.038948	2.136660	0.064828
1090.107287	2.136666	0.064950
1091.175614	2.136683	0.065068
1092.243970	2.136672	0.065176
1093.312286	2.136657	0.065292
1094.380627	2.136661	0.065414
1095.448947	2.136661	0.065534
1096.517288	2.136652	0.065656
1097.585599	2.136647	0.065778
1098.653935	2.136638	0.065898
1099.722237	2.136620	0.066018
1100.790555	2.136593	0.066138
1101.858830	2.136586	0.066260
1102.927141	2.136573	0.066390
1103.995403	2.136547	0.066506
1105.063688	2.136544	0.066616
1106.131947	2.136554	0.066738
1107.200242	2.136579	0.066860
1108.268526	2.136588	0.066984
1109.336830	2.136555	0.067112
1110.405081	2.136527	0.067234
1111.473357	2.136523	0.067354
1112.541604	2.136532	0.067480
1113.609889	2.136555	0.067602
1114.678159	2.136561	0.067722
1115.746450	2.136539	0.067848
1116.814698	2.136522	0.067972
1117.882972	2.136527	0.068092
1118.951225	2.136537	0.068218
1120.019509	2.136538	0.068342
1121.087763	2.136532	0.068474
1122.156041	2.136523	0.068606
1123.224286	2.136520	0.068728
1124.292561	2.136507	0.068850
1125.360793	2.136485	0.068974
1126.429046	2.136471	0.069108
1127.497264	2.136438	0.069240
1128.565484	2.136416	0.069360
1129.633680	2.136443	0.069476
1130.701927	2.136462	0.069602
1131.770142	2.136450	0.069736
1132.838377	2.136434	0.069862
1133.906576	2.136435	0.069976
1134.974812	2.136466	0.070104
1136.043042	2.136489	0.070240
1137.111301	2.136470	0.070374
1138.179512	2.136416	0.070508
1139.247717	2.136388	0.070634
1140.315900	2.136396	0.070760
1141.384113	2.136388	0.070886
1142.452288	2.136377	0.071016
1143.520490	2.136376	0.071144
1144.588664	2.136401	0.071264
1145.656891	2.136420	0.071398
1146.725084	2.136395	0.071540
1147.793286	2.136364	0.071672
1148.861448	2.136340	0.071808
1149.929626	2.136336	0.071940
1150.997784	2.136358	0.072068
1152.065984	2.136353	0.072192
1153.134137	2.136329	0.072314
1154.202313	2.136328	0.072446
1155.270465	2.136323	0.072578
1156.338636	2.136323	0.072708
1157.406788	2.136342	0.072848
1158.474978	2.136327	0.072988
1159.543115	2.136297	0.073114
1160.611275	2.136300	0.073234
1161.679415	2.136324	0.073370
1162.747599	2.136309	0.073510
1163.815724	2.136288	0.073644
