# run 1
# setting at 22 C
TT249336-545
TT1249200-544
TT2249064-546
TT3248924-544
TT4248788-545
TT5248648-543
TT6248508-545
TT7248372-542
TT8248232-544
TT9248096-544
TT10247956-545
TT11247820-546
TT12247680-546
TT13247540-545
TT14247404-544
TT15247264-545
TT16247124-545
TT17246988-544
TT18246848-544
TT19246708-544
TT20246572-543
TT21246432-543
TT22246292-543
TT23246152-543
TT24246016-543
TT25245876-543
TT26245736-544
TT27245596-543
TT28245460-543
TT29245320-543
TT30245180-543
TT31245040-538
TT32244904-543
TT33244764-543
TT34244624-544
TT35244484-544
TT36244348-544
TT37244208-543
TT38244068-544
TT39243928-544
TT40243788-544
TT41243652-544
TT42243512-544
TT43243372-544
TT44243232-543
TT45243092-545
TT46242952-545
TT47242816-542
TT48242676-545
TT49242536-544
TT50242396-544
TT51242256-538
TT52242116-548
TT53241980-539
TT54241840-543
TT55241700-543
TT56241560-544
TT57241420-544
TT58241280-543
TT59241140-544
TT60241004-545
TT61240864-544
TT62240724-544
TT63240584-544
TT64240444-547
TT65240304-543
TT66240168-544
TT67240028-543
TT68239888-543
TT69239748-543
TT70239608-543
TT71239468-543
TT72239328-544
TT73239192-545
TT74239052-544
TT75238912-544
TT76238772-543
TT77238632-543
TT78238492-543
TT79238356-544
TT80238216-544
TT81238076-546
TT82237936-543
TT83237796-544
TT84237656-543
TT85237516-543
TT86237380-542
TT87237240-543
TT88237100-542
TT89236960-543
TT90236820-543
TT91236680-544
TT92236544-543
TT93236404-544
TT94236264-544
TT95236124-543
TT96235984-543
TT97235848-544
TT98235708-543
TT99235568-543
TT100235428-543
TT101235288-543
TT102235152-543
TT103235012-543
TT104234872-544
TT105234732-545
TT106234592-544
TT107234456-544
TT108234316-543
TT109234176-543
TT110234036-543
TT111233896-543
TT112233760-543
TT113233620-545
TT114233480-543
TT115233340-542
TT116233204-543
TT117233064-543
TT118232924-543
TT119232784-543
TT120232648-545
TT121232508-543
TT122232368-543
TT123232232-542
TT124232092-542
TT125231952-542
TT126231816-542
TT127231676-542
TT128231536-542
TT129231400-542
TT130231260-543
TT131231120-542
TT132230984-543
TT133230844-542
TT134230704-542
TT135230568-542
TT136230428-543
TT137230288-543
TT138230152-544
TT139230012-543
TT140229876-544
TT141229736-544
TT142229596-543
TT143229460-543
TT144229320-543
TT145229180-543
TT146229044-543
TT147228904-543
TT148228768-544
TT149228628-542
TT150228488-542
TT151228352-542
TT152228212-542
TT153228076-538
TT154227936-543
TT155227800-544
TT156227660-542
TT157227520-542
TT158227384-542
TT159227244-542
TT160227108-541
TT161226968-540
TT162226832-542
TT163226692-542
TT164226556-542
TT165226416-542
TT166226280-547
TT167226140-543
TT168226004-543
TT169225864-543
TT170225728-547
TT171225588-543
TT172225452-542
TT173225312-542
TT174225176-542
TT175225040-542
TT176224900-542
TT177224764-542
TT178224624-543
TT179224488-543
TT180224348-543
TT181224212-544
TT182224072-543
TT183223936-543
TT184223800-543
TT185223660-544
TT186223524-544
TT187223384-544
TT188223248-544
TT189223108-543
TT190222972-543
TT191222836-542
TT192222696-542
TT193222560-542
TT194222420-542
TT195222284-541
TT196222148-543
TT197222008-543
TT198221872-542
TT199221732-542
TT200221596-542
TT201221460-543
TT202221320-543
TT203221184-542
TT204221048-542
TT205220908-543
TT206220772-543
TT207220636-542
TT208220496-542
TT209220360-542
TT210220224-543
TT211220084-543
TT212219948-543
TT213219812-542
TT214219672-542
TT215219536-542
TT216219400-541
TT217219264-541
TT218219124-541
TT219218988-541
TT220218852-541
TT221218712-540
TT222218576-542
TT223218440-543
TT224218304-545
TT225218164-543
TT226218028-544
TT227217892-543
TT228217756-543
TT229217616-544
TT230217480-543
TT231217344-542
TT232217204-542
TT233217068-542
TT234216932-542
TT235216796-542
TT236216660-541
TT237216520-541
TT238216384-541
TT239216248-541
TT240216112-540
TT241215972-541
TT242215836-542
TT243215700-542
TT244215564-542
TT245215428-542
TT246215292-543
TT247215152-543
TT248215016-542
TT249214880-542
TT250214744-542
TT251214608-542
TT252214472-543
TT253214332-541
TT254214196-542
TT255214060-542
TT256213924-541
TT257213788-541
TT258213652-541
TT259213516-541
TT260213376-542
TT261213240-541
TT262213104-542
TT263212968-541
TT264212832-541
TT265212696-541
TT266212560-541
TT267212424-540
TT268212288-542
TT269212152-541
TT270212016-541
TT271211880-541
TT272211744-541
TT273211608-541
TT274211472-540
TT275211336-540
TT276211200-541
TT277211064-540
TT278210928-540
TT279210792-541
TT280210656-541
TT281210520-540
TT282210384-540
TT283210248-541
TT284210112-541
TT285209976-541
TT286209840-542
TT287209704-542
TT288209572-542
TT289209436-542
TT290209300-542
TT291209164-543
TT292209028-542
TT293208892-542
TT294208756-541
TT295208620-540
TT296208484-541
TT297208348-540
TT298208216-540
TT299208080-540
TT300207944-540
TT301207808-540
TT302207672-541
TT303207536-540
TT304207400-540
TT305207264-540
TT306207132-541
TT307206996-541
TT308206860-541
TT309206724-541
TT310206588-540
TT311206452-540
TT312206320-540
TT313206184-541
TT314206048-540
TT315205912-540
TT316205780-540
TT317205644-540
TT318205508-539
TT319205372-539
TT320205240-539
TT321205104-541
TT322204968-539
TT323204832-541
TT324204700-540
TT325204564-540
TT326204428-541
TT327204292-540
TT328204160-542
TT329204024-542
TT330203888-545
TT331203752-542
TT332203620-541
TT333203484-542
TT334203348-541
TT335203216-541
TT336203080-541
TT337202944-543
TT338202812-540
TT339202676-540
TT340202540-540
TT341202408-541
TT342202272-537
TT343202136-541
TT344202004-542
TT345201868-542
TT346201732-541
TT347201596-540
TT348201464-541
TT349201328-541
TT350201196-534
TT351201060-540
TT352200924-541
TT353200792-540
TT354200656-543
TT355200520-540
TT356200388-540
TT357200252-540
TT358200120-540
TT359199984-540
TT360199848-540
TT361199716-540
TT362199580-540
TT363199448-539
TT364199312-542
TT365199176-541
TT366199044-540
TT367198908-540
TT368198776-540
TT369198640-539
TT370198504-539
TT371198372-540
TT372198236-540
TT373198104-539
TT374197968-539
TT375197836-541
TT376197700-539
TT377197568-539
TT378197432-540
TT379197300-540
TT380197164-540
TT381197028-540
TT382196896-540
TT383196760-540
TT384196628-540
TT385196492-538
TT386196360-539
TT387196228-541
TT388196092-540
TT389195960-540
TT390195824-540
TT391195692-540
TT392195556-541
TT393195424-541
TT394195288-540
TT395195156-541
TT396195020-540
TT397194888-539
TT398194756-539
TT399194620-543
TT400194488-540
TT401194352-540
TT402194220-540
TT403194084-540
TT404193952-540
TT405193820-540
TT406193684-540
TT407193552-540
TT408193416-540
TT409193284-540
TT410193152-540
TT411193016-541
TT412192884-540
TT413192748-541
TT414192616-541
TT415192484-540
TT416192348-541
TT417192216-540
TT418192080-544
TT419191948-541
TT420191816-540
TT421191680-544
TT422191548-540
TT423191416-540
TT424191280-540
TT425191148-540
TT426191012-541
TT427190880-541
TT428190748-541
TT429190612-543
TT430190480-540
TT431190348-540
TT432190212-539
TT433190080-540
TT434189948-539
TT435189812-538
TT436189680-538
TT437189548-539
TT438189412-536
TT439189280-538
TT440189148-538
TT441189012-539
TT442188880-538
TT443188748-538
TT444188616-540
TT445188480-539
TT446188348-540
TT447188216-540
TT448188080-540
TT449187948-540
TT450187816-540
TT451187684-540
TT452187548-540
TT453187416-543
TT454187284-541
TT455187148-541
TT456187016-545
TT457186884-540
TT458186752-541
TT459186616-539
TT460186484-539
TT461186352-540
TT462186220-535
TT463186084-539
TT464185952-541
TT465185820-540
TT466185688-540
TT467185552-540
TT468185420-540
TT469185288-540
TT470185156-539
TT471185020-540
TT472184888-540
TT473184756-541
TT474184624-541
TT475184488-541
TT476184356-540
TT477184224-540
TT478184092-539
TT479183956-539
TT480183824-540
TT481183692-539
TT482183560-540
TT483183428-539
TT484183292-539
TT485183160-540
TT486183028-540
TT487182896-538
TT488182764-540
TT489182628-537
TT490182496-539
TT491182364-539
TT492182232-539
TT493182100-540
TT494181968-540
TT495181832-539
TT496181700-530
TT497181568-543
TT498181436-538
TT499181304-539
TT500181172-540
TT501181040-539
TT502180908-539
TT503180772-540
TT504180640-539
TT505180508-538
TT506180376-539
TT507180244-539
TT508180112-539
TT509179980-539
TT510179848-539
TT511179712-541
TT512179580-540
TT513179448-540
TT514179316-539
TT515179184-539
TT516179052-540
TT517178920-539
TT518178788-539
TT519178656-535
TT520178524-540
TT521178392-540
TT522178256-539
TT523178124-540
TT524177992-540
TT525177864-540
TT526177728-540
TT527177596-540
TT528177464-544
TT529177332-539
TT530177200-539
TT531177068-539
TT532176936-539
TT533176804-540
TT534176672-538
TT535176540-538
TT536176408-534
TT537176276-540
TT538176144-540
TT539176012-537
TT540175880-537
TT541175748-538
TT542175616-539
TT543175480-540
TT544175352-541
TT545175216-540
TT546175084-540
TT547174952-540
TT548174820-539
TT549174688-539
TT550174560-539
TT551174428-541
TT552174296-538
TT553174164-538
TT554174032-537
TT555173900-538
TT556173768-538
TT557173636-536
TT558173504-539
TT559173372-536
TT560173240-537
TT561173108-537
TT562172976-537
TT563172844-540
TT564172712-539
TT565172584-539
TT566172452-538
TT567172320-543
TT568172188-537
TT569172056-539
TT570171924-537
TT571171792-538
TT572171660-543
TT573171532-540
TT574171400-539
TT575171268-539
TT576171136-539
TT577171004-538
TT578170872-538
TT579170740-536
TT580170612-538
TT581170480-537
TT582170348-537
TT583170216-539
TT584170084-538
TT585169956-539
TT586169824-539
TT587169692-538
TT588169560-539
TT589169428-538
TT590169300-538
TT591169168-537
TT592169036-538
TT593168904-535
TT594168772-537
TT595168644-538
TT596168512-538
TT597168380-538
TT598168248-538
TT599168120-538
TT600167988-539
TT601167856-538
TT602167724-538
TT603167592-533
TT604167464-538
TT605167332-538
TT606167200-539
TT607167068-538
TT608166940-538
TT609166808-538
TT610166676-538
TT611166544-539
TT612166416-539
TT613166284-539
TT614166152-542
TT615166020-540
TT616165888-539
TT617165760-540
TT618165628-539
TT619165496-539
TT620165364-540
TT621165236-539
TT622165104-539
TT623164972-540
TT624164840-539
TT625164708-539
TT626164580-540
TT627164448-539
TT628164316-539
TT629164184-538
TT630164056-537
TT631163924-538
TT632163792-538
TT633163660-538
TT634163532-538
TT635163400-537
TT636163268-537
TT637163136-537
TT638163008-538
TT639162876-538
TT640162744-538
TT641162616-539
TT642162484-539
TT643162352-538
TT644162220-538
TT645162092-538
TT646161960-538
TT647161828-537
TT648161700-538
TT649161568-539
TT650161436-539
TT651161304-541
TT652161176-541
TT653161044-539
TT654160912-537
TT655160784-538
TT656160652-538
TT657160520-537
TT658160392-537
TT659160260-538
TT660160128-537
TT661160000-538
TT662159868-538
TT663159736-537
TT664159608-537
TT665159476-537
TT666159344-536
TT667159216-536
TT668159084-538
TT669158952-538
TT670158824-539
TT671158692-538
TT672158560-538
TT673158432-539
TT674158300-538
TT675158168-538
TT676158040-538
TT677157908-538
TT678157780-538
TT679157648-536
TT680157516-538
TT681157388-538
TT682157256-538
TT683157124-539
TT684156996-536
TT685156864-539
TT686156736-539
TT687156604-539
TT688156472-539
TT689156344-539
TT690156212-539
TT691156080-539
TT692155952-538
TT693155820-539
TT694155692-540
TT695155560-537
TT696155428-538
TT697155300-538
TT698155168-538
TT699155036-537
TT700154908-538
TT701154776-536
TT702154648-537
TT703154516-538
TT704154384-538
TT705154256-538
TT706154124-538
TT707153996-538
TT708153864-537
TT709153732-538
TT710153604-537
TT711153472-537
TT712153344-537
TT713153212-536
TT714153084-538
TT715152952-537
TT716152820-537
TT717152692-539
TT718152560-539
TT719152432-538
TT720152300-538
TT721152172-539
TT722152040-538
TT723151912-540
TT724151780-537
TT725151652-537
TT726151520-537
TT727151388-538
TT728151260-537
TT729151128-536
TT730151000-536
TT731150868-539
TT732150740-539
TT733150608-538
TT734150480-538
TT735150348-538
TT736150220-538
TT737150088-539
TT738149960-538
TT739149832-538
TT740149700-538
TT741149568-538
TT742149436-539
TT743149308-534
TT744149176-537
TT745149048-537
TT746148916-538
TT747148788-537
TT748148656-537
TT749148528-537
TT750148396-536
TT751148268-537
TT752148136-536
TT753148008-537
TT754147880-537
TT755147748-537
TT756147620-536
TT757147488-537
TT758147360-536
TT759147228-538
TT760147100-536
TT761146968-537
TT762146840-538
TT763146708-538
TT764146580-538
TT765146448-538
TT766146320-537
TT767146188-537
TT768146060-537
TT769145932-537
TT770145800-536
TT771145672-538
TT772145540-538
TT773145412-542
TT774145280-538
TT775145152-539
TT776145024-537
TT777144892-538
TT778144764-538
TT779144632-537
TT780144504-537
TT781144372-537
TT782144244-537
TT783144112-537
TT784143984-541
TT785143852-537
TT786143724-538
TT787143596-538
TT788143464-538
TT789143336-538
TT790143204-537
TT791143076-541
TT792142948-537
TT793142816-537
TT794142688-537
TT795142556-538
TT796142428-536
TT797142300-536
TT798142168-536
TT799142040-537
TT800141912-537
TT801141780-537
TT802141652-537
TT803141520-537
TT804141392-537
TT805141264-537
TT806141132-537
TT807141004-537
TT808140876-537
TT809140744-537
TT810140616-534
TT811140488-537
TT812140356-537
TT813140228-537
TT814140100-537
TT815139968-537
TT816139840-538
TT817139708-537
TT818139580-536
TT819139452-536
TT820139320-536
TT821139192-536
TT822139064-537
TT823138932-537
TT824138804-537
TT825138676-537
TT826138548-537
TT827138416-537
TT828138288-538
TT829138156-538
TT830138028-538
TT831137900-537
TT832137768-537
TT833137640-536
TT834137512-537
TT835137380-537
TT836137252-537
TT837137124-537
TT838136992-537
TT839136864-536
TT840136736-536
TT841136604-536
TT842136476-536
TT843136348-536
TT844136220-534
TT845136088-536
TT846135960-536
TT847135832-537
TT848135700-538
TT849135572-537
TT850135444-537
TT851135316-536
TT852135184-537
TT853135056-536
TT854134928-536
TT855134800-536
TT856134668-536
TT857134540-537
TT858134412-538
TT859134280-539
TT860134152-537
TT861134024-537
TT862133896-538
TT863133764-538
TT864133636-538
TT865133508-538
TT866133380-538
TT867133248-537
TT868133120-539
TT869132992-538
TT870132860-538
TT871132732-541
TT872132604-538
TT873132476-538
TT874132344-537
TT875132216-537
TT876132088-537
TT877131956-537
TT878131828-537
TT879131700-536
TT880131572-536
TT881131440-537
TT882131312-536
TT883131184-537
TT884131056-535
TT885130924-537
TT886130796-536
TT887130668-537
TT888130540-537
TT889130408-537
TT890130280-537
TT891130152-537
TT892130024-537
TT893129892-537
TT894129764-536
TT895129636-536
TT896129508-537
TT897129376-534
TT898129248-536
TT899129120-536
TT900128992-535
TT901128864-535
TT902128736-535
TT903128604-535
TT904128476-536
TT905128348-536
TT906128220-536
TT907128088-535
TT908127960-536
TT909127832-537
TT910127704-537
TT911127576-536
TT912127444-538
TT913127316-537
TT914127188-538
TT915127060-536
TT916126932-536
TT917126800-536
TT918126672-536
TT919126544-536
TT920126416-536
TT921126288-536
TT922126156-535
TT923126028-535
TT924125900-536
TT925125772-537
TT926125644-537
TT927125516-537
TT928125384-537
TT929125256-537
TT930125128-537
TT931125000-537
TT932124872-537
TT933124744-536
TT934124612-537
TT935124484-536
TT936124356-537
TT937124228-537
TT938124100-536
TT939123972-536
TT940123840-537
TT941123712-536
TT942123584-536
TT943123456-536
TT944123328-537
TT945123200-537
TT946123068-537
TT947122940-535
TT948122812-537
TT949122684-537
TT950122556-536
TT951122428-537
TT952122296-537
TT953122168-538
TT954122040-537
TT955121912-537
TT956121784-536
TT957121656-535
TT958121524-536
TT959121396-535
TT960121268-535
TT961121140-536
TT962121012-537
TT963120884-536
TT964120756-538
TT965120624-539
TT966120496-540
TT967120368-539
TT968120240-539
TT969120112-539
TT970119984-538
TT971119856-538
TT972119724-538
TT973119596-537
TT974119468-537
TT975119340-535
TT976119212-536
TT977119084-531
TT978118956-538
TT979118828-536
TT980118696-536
TT981118568-536
TT982118440-536
TT983118312-533
TT984118184-537
TT985118056-537
TT986117928-536
TT987117796-537
TT988117668-537
TT989117540-537
TT990117412-537
TT991117284-539
TT992117156-537
TT993117028-536
TT994116896-536
TT995116768-536
TT996116640-537
TT997116512-538
TT998116384-535
TT999116256-536
TT1000116128-536
TT1001115996-536
TT1002115868-536
TT1003115740-535
TT1004115612-538
TT1005115484-530
TT1006115356-534
TT1007115228-535
TT1008115100-536
TT1009114972-537
TT1010114844-537
TT1011114712-537
TT1012114584-538
TT1013114456-538
TT1014114328-537
TT1015114200-536
TT1016114072-537
TT1017113944-536
TT1018113816-538
TT1019113688-538
TT1020113560-537
TT1021113428-536
TT1022113300-536
TT1023113172-536
TT1024113044-535
TT1025112916-535
TT1026112788-535
TT1027112660-534
TT1028112532-533
TT1029112404-536
TT1030112276-535
TT1031112148-537
TT1032112020-536
TT1033111892-537
TT1034111764-534
TT1035111632-544
TT1036111504-536
TT1037111376-536
TT1038111248-535
TT1039111120-535
TT1040110992-536
TT1041110864-536
TT1042110736-537
TT1043110608-536
TT1044110480-536
TT1045110352-536
TT1046110224-536
TT1047110096-536
TT1048109968-536
TT1049109840-536
TT1050109712-535
TT1051109584-536
TT1052109456-535
TT1053109328-535
TT1054109200-539
TT1055109072-536
TT1056108944-536
TT1057108816-536
TT1058108688-541
TT1059108556-536
TT1060108428-536
TT1061108300-534
TT1062108172-538
TT1063108044-539
TT1064107916-537
TT1065107788-537
TT1066107660-536
TT1067107532-536
TT1068107404-537
TT1069107276-536
TT1070107148-536
TT1071107020-535
TT1072106892-539
TT1073106764-536
TT1074106636-536
TT1075106508-536
TT1076106380-536
TT1077106252-536
TT1078106124-537
TT1079105996-536
TT1080105868-536
TT1081105736-537
TT1082105608-537
TT1083105480-535
TT1084105352-536
TT1085105224-536
TT1086105096-536
TT1087104968-536
TT1088104840-536
TT1089104712-536
TT1090104584-536
TT1091104456-536
TT1092104328-536
TT1093104200-536
TT1094104072-535
TT1095103944-535
TT1096103816-536
TT1097103688-535
TT1098103560-536
TT1099103432-536
TT1100103304-535
TT1101103176-540
TT1102103048-536
TT1103102920-536
TT1104102792-535
TT1105102664-535
TT1106102536-537
TT1107102408-536
TT1108102280-536
TT1109102152-536
TT1110102024-536
TT1111101896-536
TT1112101768-535
TT1113101640-535
TT1114101512-536
TT1115101384-536
TT1116101256-534
TT1117101128-537
TT1118101000-536
TT1119100872-536
TT1120100748-534
TT1121100616-536
TT1122100492-538
TT1123100364-536
TT1124100236-537
TT1125100108-533
TT1126099980-536
TT1127099852-536
TT1128099724-532
TT1129099596-536
TT1130099468-536
TT1131099340-536
TT1132099212-536
TT1133099084-536
TT1134098956-536
TT1135098828-535
TT1136098700-535
TT1137098572-536
TT1138098444-539
TT1139098316-537
TT1140098188-536
TT1141098060-536
TT1142097932-530
TT1143097804-536
TT1144097676-535
TT1145097548-535
TT1146097424-530
TT1147097296-536
TT1148097168-537
TT1149097040-536
TT1150096912-536
TT1151096784-536
TT1152096656-537
TT1153096528-537
TT1154096400-538
TT1155096272-536
TT1156096144-535
TT1157096016-534
TT1158095888-536
TT1159095760-535
TT1160095632-535
TT1161095504-536
TT1162095376-536
TT1163095248-535
TT1164095120-535
TT1165094992-535
TT1166094868-535
TT1167094740-534
TT1168094612-535
TT1169094484-535
TT1170094356-536
TT1171094228-535
TT1172094100-536
TT1173093972-536
TT1174093844-536
TT1175093716-536
TT1176093588-542
TT1177093460-537
TT1178093332-536
TT1179093204-535
TT1180093080-535
TT1181092952-535
TT1182092824-536
TT1183092696-536
TT1184092568-536
TT1185092440-536
TT1186092312-536
TT1187092184-536
TT1188092056-536
TT1189091928-536
TT1190091800-535
TT1191091672-535
TT1192091548-535
TT1193091420-535
TT1194091292-535
TT1195091164-535
TT1196091036-536
TT1197090908-536
TT1198090780-537
TT1199090652-537
TT1200090524-537
TT1201090396-536
TT1202090268-536
TT1203090140-535
TT1204090012-536
TT1205089884-538
TT1206089760-537
TT1207089632-535
TT1208089504-535
TT1209089376-535
TT1210089248-535
TT1211089120-536
TT1212088992-535
TT1213088864-534
TT1214088736-536
TT1215088608-537
TT1216088480-537
TT1217088356-537
TT1218088228-537
TT1219088100-537
TT1220087972-535
TT1221087844-536
TT1222087716-536
TT1223087588-536
TT1224087460-536
TT1225087332-536
TT1226087204-535
TT1227087076-535
TT1228086948-537
TT1229086820-536
TT1230086696-537
TT1231086568-537
TT1232086440-536
TT1233086312-537
TT1234086184-536
TT1235086056-536
TT1236085928-536
TT1237085800-536
TT1238085672-537
TT1239085544-536
TT1240085416-537
TT1241085288-537
TT1242085160-537
TT1243085036-537
TT1244084908-537
TT1245084780-538
TT1246084652-538
TT1247084524-537
TT1248084396-537
TT1249084268-536
TT1250084140-537
TT1251084012-536
TT1252083884-536
TT1253083756-536
TT1254083628-536
TT1255083500-536
TT1256083372-536
TT1257083248-535
TT1258083120-535
TT1259082992-535
TT1260082864-535
TT1261082736-535
TT1262082608-535
TT1263082480-534
TT1264082352-535
TT1265082224-535
TT1266082100-533
TT1267081972-534
TT1268081844-535
TT1269081716-535
TT1270081588-535
TT1271081460-534
TT1272081336-535
TT1273081208-536
TT1274081080-535
TT1275080952-534
TT1276080824-536
TT1277080696-536
TT1278080572-535
TT1279080444-535
TT1280080316-533
TT1281080188-535
TT1282080060-534
TT1283079932-535
TT1284079804-535
TT1285079680-536
TT1286079552-536
TT1287079424-535
TT1288079296-535
TT1289079168-535
TT1290079040-537
TT1291078916-536
TT1292078788-535
TT1293078660-534
TT1294078532-536
TT1295078408-536
TT1296078276-535
TT1297078152-530
TT1298078024-535
TT1299077896-535
TT1300077768-535
TT1301077640-535
TT1302077516-534
TT1303077388-535
TT1304077260-535
TT1305077132-535
TT1306077004-534
TT1307076876-535
TT1308076752-535
TT1309076624-535
TT1310076496-535
TT1311076368-535
TT1312076244-535
TT1313076116-536
TT1314075988-536
TT1315075860-536
TT1316075732-539
TT1317075608-535
TT1318075480-535
TT1319075352-535
TT1320075224-540
TT1321075096-535
TT1322074972-535
TT1323074844-534
TT1324074716-535
TT1325074588-535
TT1326074460-536
TT1327074336-535
TT1328074208-535
TT1329074080-534
TT1330073952-536
TT1331073824-536
TT1332073700-536
TT1333073572-536
TT1334073444-536
TT1335073316-536
TT1336073192-536
TT1337073064-537
TT1338072936-535
TT1339072808-534
TT1340072680-535
TT1341072556-535
TT1342072428-536
TT1343072300-535
TT1344072172-536
TT1345072044-538
TT1346071920-536
TT1347071792-536
TT1348071664-536
TT1349071536-537
TT1350071408-535
TT1351071284-536
TT1352071156-536
TT1353071028-535
TT1354070900-539
TT1355070772-535
TT1356070648-536
TT1357070520-536
TT1358070392-534
TT1359070264-536
TT1360070136-538
TT1361070012-535
TT1362069884-536
TT1363069756-536
TT1364069628-536
TT1365069500-536
TT1366069376-536
TT1367069248-536
TT1368069120-536
TT1369068992-536
TT1370068864-537
TT1371068740-536
TT1372068612-537
TT1373068484-537
TT1374068356-536
TT1375068228-534
TT1376068100-536
TT1377067976-535
TT1378067848-535
TT1379067720-533
TT1380067592-538
TT1381067464-533
TT1382067340-535
TT1383067212-539
TT1384067084-536
TT1385066956-536
TT1386066828-536
TT1387066700-536
TT1388066576-536
TT1389066448-536
TT1390066320-536
TT1391066192-538
TT1392066064-536
TT1393065940-536
TT1394065812-536
TT1395065684-535
TT1396065556-535
TT1397065428-536
TT1398065304-535
TT1399065176-535
TT1400065048-535
TT1401064920-535
TT1402064796-535
TT1403064668-535
TT1404064540-535
TT1405064412-535
TT1406064284-535
TT1407064160-536
TT1408064032-537
TT1409063904-536
TT1410063776-536
TT1411063648-535
TT1412063524-536
TT1413063396-536
TT1414063268-536
TT1415063140-536
TT1416063016-537
TT1417062888-537
TT1418062760-537
TT1419062632-537
TT1420062504-537
TT1421062376-537
TT1422062252-536
TT1423062124-532
TT1424061996-536
TT1425061868-536
TT1426061740-537
TT1427061612-537
TT1428061488-537
TT1429061360-538
TT1430061232-538
TT1431061104-537
TT1432060976-538
TT1433060848-537
TT1434060724-537
TT1435060596-538
TT1436060468-537
TT1437060340-538
TT1438060212-538
TT1439060084-535
TT1440059956-536
TT1441059832-536
TT1442059704-536
TT1443059576-534
TT1444059448-535
TT1445059320-538
TT1446059196-535
TT1447059068-535
TT1448058940-536
TT1449058812-536
TT1450058684-536
TT1451058556-536
TT1452058432-536
TT1453058304-535
TT1454058176-535
TT1455058048-536
TT1456057920-535
TT1457057800-535
TT1458057668-534
TT1459057540-536
TT1460057412-536
TT1461057284-536
TT1462057160-537
TT1463057032-536
TT1464056904-536
TT1465056776-536
TT1466056648-535
TT1467056520-535
TT1468056396-535
TT1469056268-536
TT1470056140-536
TT1471056012-536
TT1472055884-535
TT1473055760-535
TT1474055632-535
TT1475055504-536
TT1476055376-536
TT1477055248-536
TT1478055124-536
TT1479054996-536
TT1480054868-538
TT1481054740-536
TT1482054612-536
TT1483054488-536
TT1484054360-536
TT1485054232-536
TT1486054104-536
TT1487053976-536
TT1488053852-534
TT1489053724-535
TT1490053596-535
TT1491053468-536
TT1492053344-538
TT1493053216-536
TT1494053088-536
TT1495052960-536
TT1496052832-532
TT1497052708-537
TT1498052580-535
TT1499052452-536
TT1500052324-536
TT1501052196-536
TT1502052072-537
TT1503051944-536
TT1504051816-537
TT1505051688-536
TT1506051560-536
TT1507051432-537
TT1508051308-536
TT1509051180-537
TT1510051052-536
TT1511050924-537
TT1512050796-537
TT1513050672-536
TT1514050544-534
TT1515050416-535
TT1516050288-535
TT1517050160-534
TT1518050036-536
TT1519049908-537
TT1520049780-538
TT1521049652-538
TT1522049524-537
TT1523049396-537
TT1524049272-537
TT1525049144-537
TT1526049016-537
TT1527048888-536
TT1528048760-536
TT1529048632-536
TT1530048508-536
TT1531048380-536
TT1532048252-534
TT1533048124-536
TT1534047996-537
TT1535047868-541
TT1536047744-536
TT1537047616-536
TT1538047488-536
TT1539047360-536
TT1540047232-536
TT1541047104-535
TT1542046980-536
TT1543046852-536
TT1544046724-536
TT1545046596-535
TT1546046472-535
TT1547046340-535
TT1548046216-534
TT1549046088-536
TT1550045960-537
TT1551045832-535
TT1552045704-535
TT1553045576-535
TT1554045452-535
TT1555045324-535
TT1556045196-534
TT1557045068-534
TT1558044940-534
TT1559044816-537
TT1560044688-537
TT1561044560-536
TT1562044432-536
TT1563044304-535
TT1564044180-536
TT1565044052-536
TT1566043924-535
TT1567043796-536
TT1568043668-536
TT1569043540-536
TT1570043416-536
TT1571043288-536
TT1572043160-541
TT1573043032-536
TT1574042904-536
TT1575042780-535
TT1576042652-535
TT1577042524-536
TT1578042396-536
TT1579042268-536
TT1580042140-537
TT1581042016-539
TT1582041888-538
TT1583041760-537
TT1584041632-538
TT1585041504-537
TT1586041376-536
TT1587041252-536
TT1588041124-536
TT1589040996-535
TT1590040868-534
TT1591040740-535
TT1592040616-536
TT1593040488-537
TT1594040360-536
TT1595040232-536
TT1596040104-535
TT1597039976-535
TT1598039852-535
TT1599039724-533
TT1600039596-529
TT1601039468-535
TT1602039340-535
TT1603039216-535
TT1604039088-535
TT1605038960-538
TT1606038832-534
TT1607038704-533
TT1608038580-536
TT1609038452-536
TT1610038324-538
TT1611038196-537
TT1612038068-536
TT1613037944-535
TT1614037816-535
TT1615037688-535
TT1616037560-536
TT1617037436-536
TT1618037308-536
TT1619037180-536
TT1620037052-535
TT1621036924-534
TT1622036800-535
TT1623036672-534
TT1624036544-535
TT1625036416-536
TT1626036292-535
TT1627036164-536
TT1628036036-536
TT1629035908-535
TT1630035784-535
TT1631035656-535
TT1632035528-534
TT1633035400-535
TT1634035272-535
TT1635035148-534
TT1636035020-535
TT1637034892-533
TT1638034764-536
TT1639034640-535
TT1640034512-535
TT1641034384-536
TT1642034256-537
TT1643034132-536
TT1644034004-536
TT1645033876-536
TT1646033748-536
TT1647033624-536
TT1648033496-536
TT1649033368-536
TT1650033240-536
TT1651033116-537
TT1652032988-536
TT1653032860-536
TT1654032732-536
TT1655032604-537
TT1656032480-537
TT1657032352-536
TT1658032224-536
TT1659032096-537
TT1660031972-537
TT1661031844-537
TT1662031716-536
TT1663031588-536
TT1664031460-535
TT1665031336-533
TT1666031208-534
TT1667031080-534
TT1668030952-534
TT1669030828-535
TT1670030700-535
TT1671030572-534
TT1672030444-534
TT1673030320-534
TT1674030192-534
TT1675030064-535
TT1676029936-535
TT1677029812-536
TT1678029684-536
TT1679029556-535
TT1680029428-535
TT1681029304-534
TT1682029176-535
TT1683029048-536
TT1684028920-535
TT1685028796-536
TT1686028668-535
TT1687028540-535
TT1688028412-534
TT1689028288-535
TT1690028160-535
TT1691028032-536
TT1692027904-536
TT1693027780-541
TT1694027652-537
TT1695027524-537
TT1696027396-537
TT1697027272-536
TT1698027144-535
TT1699027016-534
TT1700026888-536
TT1701026764-535
TT1702026636-535
TT1703026508-536
TT1704026380-536
TT1705026256-536
TT1706026128-536
TT1707026000-538
TT1708025872-536
TT1709025748-541
TT1710025620-527
TT1711025492-537
TT1712025364-535
TT1713025240-535
TT1714025112-532
TT1715024984-535
TT1716024860-534
TT1717024732-535
TT1718024604-536
TT1719024476-533
TT1720024352-535
TT1721024224-535
TT1722024096-535
TT1723023968-535
TT1724023844-533
TT1725023716-535
TT1726023588-534
TT1727023464-535
TT1728023336-535
TT1729023208-534
TT1730023084-536
TT1731022956-534
TT1732022828-535
TT1733022700-537
TT1734022576-536
TT1735022448-536
TT1736022320-533
TT1737022196-535
TT1738022068-538
TT1739021940-535
TT1740021812-536
TT1741021688-535
TT1742021560-538
TT1743021432-535
TT1744021308-535
TT1745021180-535
TT1746021052-536
TT1747020928-536
TT1748020800-536
TT1749020672-533
TT1750020548-535
TT1751020420-535
TT1752020292-538
TT1753020164-534
TT1754020040-534
TT1755019912-535
TT1756019784-534
TT1757019660-534
TT1758019532-535
TT1759019404-535
TT1760019280-535
TT1761019152-533
TT1762019024-536
TT1763018896-534
TT1764018772-535
TT1765018644-535
TT1766018516-536
TT1767018388-533
TT1768018264-536
TT1769018136-535
TT1770018008-535
TT1771017884-537
TT1772017756-535
TT1773017628-535
TT1774017504-536
TT1775017376-536
TT1776017248-536
TT1777017120-536
TT1778016996-536
TT1779016868-537
TT1780016740-536
TT1781016616-537
TT1782016488-537
TT1783016360-537
TT1784016232-536
TT1785016108-536
TT1786015980-536
TT1787015852-536
TT1788015724-535
TT1789015600-535
TT1790015472-534
TT1791015344-535
TT1792015220-535
TT1793015092-535
TT1794014964-535
TT1795014836-536
TT1796014712-536
TT1797014584-537
TT1798014456-537
TT1799014328-536
TT1800014204-533
TT1801014076-536
TT1802013948-536
TT1803013824-536
TT1804013696-535
TT1805013568-535
TT1806013440-534
TT1807013316-535
TT1808013188-535
TT1809013060-535
TT1810012936-535
TT1811012808-535
TT1812012680-535
TT1813012556-535
TT1814012428-535
TT1815012300-535
TT1816012176-536
TT1817012048-537
TT1818011920-535
TT1819011796-535
TT1820011668-535
TT1821011540-535
TT1822011416-535
TT1823011288-535
TT1824011160-535
TT1825011032-534
TT1826010908-534
TT1827010780-532
TT1828010652-533
TT1829010528-533
TT1830010400-534
TT1831010272-535
TT1832010148-535
TT1833010020-536
TT1834009892-536
TT1835009768-536
TT1836009640-535
TT1837009512-535
TT1838009388-535
TT1839009260-536
TT1840009132-533
TT1841009008-535
TT1842008880-534
TT1843008752-534
TT1844008628-535
TT1845008500-536
TT1846008372-536
TT1847008248-537
TT1848008120-537
TT1849007992-537
TT1850007864-527
TT1851007740-537
TT1852007612-536
TT1853007484-537
TT1854007360-536
TT1855007232-535
TT1856007104-535
TT1857006980-534
TT1858006852-536
TT1859006724-537
TT1860006600-537
TT1861006472-538
TT1862006344-537
TT1863006216-537
TT1864006092-536
TT1865005964-537
TT1866005836-536
TT1867005712-535
TT1868005584-535
TT1869005456-536
TT1870005328-536
TT1871005204-536
TT1872005076-534
TT1873004948-536
TT1874004820-535
TT1875004696-535
TT1876004568-537
TT1877004440-536
TT1878004316-536
TT1879004188-537
TT1880004060-536
TT1881003932-535
TT1882003808-536
TT1883003680-537
TT1884003552-536
TT1885003424-535
TT1886003300-535
TT1887003172-535
TT1888003044-535
TT1889002916-532
TT1890002792-536
TT1891002664-536
TT1892002536-537
TT1893002408-537
TT1894002284-536
TT1895002156-536
TT1896002028-535
TT1897001900-535
TT1898001776-536
TT1899001648-536
TT1900001520-536
TT1901001392-536
TT1902001268-531
TT1903001140-535
TT1904001012-536
TT1905000884-535
TT1906000760-534
TT1907000632-535
TT1908000504-530
TT1909000380-536
TT1910000252-536
TT1911000124-536
TT1911999996-535
TT1912999872-536
TT1913999744-536
TT1914999616-535
TT1915999492-535
TT1916999364-535
TT1917999236-535
TT1918999108-535
TT1919998984-535
TT1920998856-535
TT1921998728-535
TT1922998604-535
TT1923998476-533
TT1924998348-535
TT1925998224-540
TT1926998096-536
TT1927997968-536
TT1928997840-537
TT1929997716-537
TT1930997588-538
TT1931997460-536
TT1932997332-537
TT1933997208-537
TT1934997080-536
TT1935996952-536
TT1936996824-535
TT1937996700-536
TT1938996572-536
TT1939996444-535
TT1940996316-533
TT1941996192-535
TT1942996064-536
TT1943995936-536
TT1944995808-535
TT1945995684-536
TT1946995556-536
TT1947995428-535
TT1948995300-534
TT1949995176-537
TT1950995048-535
TT1951994920-535
TT1952994796-533
TT1953994668-537
TT1954994540-536
TT1955994412-536
TT1956994288-537
TT1957994160-536
TT1958994032-536
TT1959993908-535
TT1960993780-535
TT1961993652-535
TT1962993524-535
TT1963993400-535
TT1964993272-535
TT1965993144-536
TT1966993016-535
TT1967992892-535
TT1968992764-534
TT1969992636-535
TT1970992512-535
TT1971992384-535
TT1972992256-536
TT1973992132-536
TT1974992004-536
TT1975991876-535
TT1976991752-534
TT1977991624-533
TT1978991496-535
TT1979991368-538
TT1980991244-535
TT1981991116-535
TT1982990988-535
TT1983990864-534
TT1984990736-537
TT1985990608-537
TT1986990484-537
TT1987990356-536
TT1988990228-537
TT1989990100-536
TT1990989976-536
TT1991989848-536
TT1992989720-537
TT1993989596-536
TT1994989468-536
TT1995989340-536
TT1996989212-538
TT1997989088-536
TT1998988960-536
TT1999988832-536
TT2000988708-536
TT2001988580-536
TT2002988452-536
TT2003988324-537
TT2004988200-537
TT2005988072-537
TT2006987944-536
TT2007987816-537
TT2008987692-537
TT2009987564-529
TT2010987436-536
TT2011987308-536
TT2012987184-535
TT2013987056-535
TT2014986928-534
TT2015986800-535
TT2016986676-535
TT2017986548-535
TT2018986420-535
TT2019986296-535
TT2020986168-536
TT2021986040-535
TT2022985912-535
TT2023985788-535
TT2024985660-535
TT2025985532-536
TT2026985408-536
TT2027985280-536
TT2028985152-536
TT2029985024-536
TT2030984900-536
TT2031984772-533
TT2032984644-537
TT2033984520-537
TT2034984392-536
TT2035984264-536
TT2036984136-536
TT2037984008-536
TT2038983884-536
TT2039983756-536
TT2040983628-538
TT2041983500-535
TT2042983376-536
TT2043983248-536
TT2044983120-536
TT2045982992-536
TT2046982868-534
TT2047982740-535
TT2048982612-536
TT2049982484-538
TT2050982360-536
TT2051982232-536
TT2052982104-537
TT2053981976-537
TT2054981852-538
TT2055981724-536
TT2056981596-536
TT2057981468-536
TT2058981340-536
TT2059981216-536
