<?xml version="1.0" standalone="no"?>
<!DOCTYPE svg PUBLIC "-//W3C//DTD SVG 1.1//EN"
"http://www.w3.org/Graphics/SVG/1.1/DTD/svg11.dtd">
<svg width="12.00mm"
     height="5.00mm"
     viewBox="0 0 1200 500"
     xmlns="http://www.w3.org/2000/svg"
     xmlns:xlink="http://www.w3.org/1999/xlink">
  
  <text x="0"  y="200" font-family="'OCR A'" font-size="140" fill="white">
  Plasduino</text>
  <text x="0"  y="400" font-family="'OCR A'" font-size="100" fill="white">
  Lab1 shield v2.0</text>
</svg>
