<?xml version="1.0" encoding="UTF-8" standalone="no"?>
<svg xmlns="http://www.w3.org/2000/svg" version="1.1" width="35" height="35">

<rect opacity="0.35" rx="4" ry="4" height="34" width="34" stroke="#052c6e" y="0.5" x="0.5" stroke-width="1" fill="#6a92d4"/>

<rect opacity="0.5" rx="4" ry="4" height="17" width="33" y="1" x="1" stroke-width="0" fill="#ffffff"/>

<polygon opacity="0.35" stroke-linejoin="round" stroke="#052c6e" points="10.000000,10.500000 20.000000,17.500000 10.000000,24.500000" stroke-width="1" fill="#ffffff"/>

<rect opacity="0.35" rx="1" ry="1" height="14" width="5" stroke="#052c6e" y="10.5" x="20.0" stroke-width="1" fill="#ffffff"/>

</svg>
