#
# Written by plasduino.tempmonitorEventBuffer on Mon Nov 26 17:56:18 2012.
# Time		Temp A0		Temp A1
# [s]		[deg C]		[deg C]
#
0.001		43.41		-273.15
0.502		43.53		-273.15
1.002		43.66		-273.15
1.503		43.66		-273.15
2.004		43.79		-273.15
2.505		43.79		-273.15
3.005		43.92		-273.15
3.506		43.92		-273.15
4.007		44.05		-273.15
4.508		44.05		-273.15
5.008		44.18		-273.15
5.509		44.18		-273.15
6.010		44.18		-273.15
6.511		44.31		-273.15
7.011		44.44		-273.15
7.512		44.44		-273.15
8.013		44.57		-273.15
8.513		44.70		-273.15
9.014		44.57		-273.15
9.515		44.70		-273.15
10.016		44.70		-273.15
10.516		44.70		-273.15
11.017		44.83		-273.15
11.518		44.83		-273.15
12.019		44.83		-273.15
12.519		44.83		-273.15
13.020		44.96		-273.15
13.521		45.09		-273.15
14.022		44.96		-273.15
14.522		44.96		-273.15
15.024		44.96		-273.15
15.525		44.96		-273.15
16.026		45.09		-273.15
16.526		45.22		-273.15
17.026		45.09		-273.15
17.528		45.09		-273.15
18.028		45.22		-273.15
18.529		45.36		-273.15
19.029		45.22		-273.15
19.531		45.22		-273.15
20.031		45.22		-273.15
20.532		45.36		-273.15
21.033		45.36		-273.15
21.534		45.36		-273.15
22.034		45.36		-273.15
22.535		45.36		-273.15
23.036		45.49		-273.15
23.537		45.49		-273.15
24.037		45.22		-273.15
24.538		45.36		-273.15
25.039		45.49		-273.15
25.540		45.36		-273.15
26.040		45.49		-273.15
26.541		45.36		-273.15
27.042		45.49		-273.15
27.542		45.49		-273.15
28.043		45.49		-273.15
28.544		45.49		-273.15
29.045		45.36		-273.15
29.545		45.62		-273.15
30.046		45.49		-273.15
30.547		45.62		-273.15
31.048		45.49		-273.15
31.548		45.62		-273.15
32.049		45.62		-273.15
32.550		45.62		-273.15
33.051		45.49		-273.15
33.551		45.62		-273.15
34.052		45.62		-273.15
34.553		45.62		-273.15
35.054		45.49		-273.15
35.554		45.75		-273.15
36.056		45.75		-273.15
36.556		45.62		-273.15
37.057		45.62		-273.15
37.557		45.62		-273.15
38.059		45.62		-273.15
38.559		45.62		-273.15
39.059		45.62		-273.15
39.560		45.62		-273.15
40.062		45.62		-273.15
40.562		45.75		-273.15
41.063		45.75		-273.15
41.564		45.62		-273.15
42.065		45.62		-273.15
42.566		45.62		-273.15
43.066		45.62		-273.15
43.567		45.62		-273.15
44.068		45.62		-273.15
44.569		45.75		-273.15
45.069		45.62		-273.15
45.570		45.62		-273.15
46.071		45.75		-273.15
46.571		45.75		-273.15
47.072		45.89		-273.15
47.573		45.75		-273.15
48.074		45.75		-273.15
48.574		45.75		-273.15
49.075		45.75		-273.15
49.576		45.62		-273.15
50.077		45.75		-273.15
50.577		45.75		-273.15
51.078		45.89		-273.15
51.579		45.89		-273.15
52.080		45.89		-273.15
52.580		45.89		-273.15
53.081		45.89		-273.15
53.582		45.75		-273.15
54.082		45.89		-273.15
54.583		46.02		-273.15
55.084		44.44		-273.15
55.585		42.14		-273.15
56.086		40.77		-273.15
56.587		35.10		-273.15
57.088		30.98		-273.15
57.588		29.04		-273.15
58.088		27.86		-273.15
58.590		27.23		-273.15
59.091		26.70		-273.15
59.591		26.49		-273.15
60.091		26.07		-273.15
60.593		25.86		-273.15
61.094		25.65		-273.15
61.595		25.44		-273.15
62.095		25.34		-273.15
62.596		25.23		-273.15
63.097		25.13		-273.15
63.597		25.02		-273.15
64.098		24.92		-273.15
64.599		24.92		-273.15
65.100		24.71		-273.15
65.600		24.71		-273.15
66.101		24.61		-273.15
66.602		24.50		-273.15
67.103		24.40		-273.15
67.603		24.40		-273.15
68.104		24.40		-273.15
68.605		24.30		-273.15
69.106		24.30		-273.15
69.606		24.19		-273.15
70.107		24.19		-273.15
70.608		24.19		-273.15
71.109		24.09		-273.15
71.609		24.09		-273.15
72.110		24.09		-273.15
72.611		23.98		-273.15
73.112		23.98		-273.15
73.612		23.88		-273.15
74.113		23.88		-273.15
74.614		23.78		-273.15
75.114		23.78		-273.15
75.615		23.78		-273.15
76.117		23.78		-273.15
76.618		23.78		-273.15
77.118		23.67		-273.15
77.619		23.67		-273.15
78.120		23.67		-273.15
78.621		23.67		-273.15
79.121		24.09		-273.15
79.621		24.61		-273.15
80.123		25.13		-273.15
80.624		25.55		-273.15
81.124		25.86		-273.15
81.625		26.17		-273.15
82.126		26.28		-273.15
82.627		26.49		-273.15
83.127		26.59		-273.15
83.628		26.80		-273.15
84.129		26.91		-273.15
84.629		26.91		-273.15
85.130		26.91		-273.15
85.631		27.02		-273.15
