<?xml version="1.0" encoding="UTF-8" standalone="no"?>
<svg xmlns="http://www.w3.org/2000/svg" version="1.1" width="35" height="35">

<rect opacity="1" rx="4" ry="4" height="34" width="34" stroke="#a64a00" y="0.5" x="0.5" stroke-width="1" fill="#ffb173"/>

<rect opacity="0.5" rx="4" ry="4" height="17" width="33" y="1" x="1" stroke-width="0" fill="#ffffff"/>

<polygon opacity="1" stroke-linejoin="round" stroke="#a64a00" points="25.000000,10.500000 15.000000,17.500000 25.000000,24.500000" stroke-width="1" fill="#ffffff"/>

<rect opacity="1" rx="1" ry="1" height="14" width="5" stroke="#a64a00" y="10.5" x="10.0" stroke-width="1" fill="#ffffff"/>

</svg>
