<?xml version="1.0" encoding="UTF-8" standalone="no"?>
<svg xmlns="http://www.w3.org/2000/svg" version="1.1" width="35" height="35">

<rect opacity="0.35" rx="4" ry="4" height="34" width="34" stroke="#a64a00" y="0.5" x="0.5" stroke-width="1" fill="#ffb173"/>

<rect opacity="0.5" rx="4" ry="4" height="17" width="33" y="1" x="1" stroke-width="0" fill="#ffffff"/>

<polygon opacity="0.35" stroke-linejoin="round" stroke="#a64a00" points="12.100000,9.000000 25.100000,17.500000 12.100000,26.000000" stroke-width="1" fill="#ffffff"/>

</svg>
